test_run_dir/Vending_machine_test_should_pass/VendingMachine.vcd
$date
2026-04-30T13:20+0000
$end
$version
0.2
$end
$comment

$end
$timescale 1ns  $end
$scope module VendingMachine $end
 $var wire 4 # io_an $end
 $var wire 1 & priceTrigger $end
 $var wire 10 + countTo4 $end
 $var wire 1 , SerialComs $end
 $var wire 1 . buyTrigger $end
 $var wire 1 4 imFull $end
 $var wire 7 6 io_seg $end
 $var wire 1 8 coin2Trigger $end
 $var wire 32 : tick_tickCnt $end
 $var wire 1 > prevCoin2 $end
 $var wire 1 B prevCoin5 $end
 $var wire 8 K inserted $end
 $var wire 1 T io_coin5 $end
 $var wire 1 U io_coin2 $end
 $var wire 1 W dispense $end
 $var wire 1 X tick $end
 $var wire 1 Y clock $end
 $var wire 1 [ io_tx $end
 $var wire 1 l ringAlarm $end
 $var wire 1 m full5 $end
 $var wire 1 n full2 $end
 $var wire 1 o prevBuy $end
 $var wire 1 q io_buy $end
 $var wire 1 "* DisplayMultiplexer $end
 $var wire 1 ", io_alarm $end
 $var wire 1 "- io_releaseCan $end
 $var wire 1 ". reset $end
 $var wire 1 "2 coin5Trigger $end
 $var wire 5 "3 io_price $end
 $var wire 5 "C prevPrice $end
 $var wire 1 "N enough $end
  $scope module SerialComs.uart.buf $end
  $upscope $end
  $scope module DisplayMultiplexer.decoder $end
  $upscope $end
  $scope module SerialComs.uart $end
  $upscope $end
  $scope module DisplayMultiplexer $end
   $var wire 1 " reset $end
   $var wire 5 ' io_price $end
   $var wire 4 ( Number3Full $end
   $var wire 4 / number4 $end
   $var wire 4 1 number3 $end
   $var wire 4 2 number2 $end
   $var wire 4 3 number1 $end
   $var wire 1 5 clock $end
   $var wire 7 ; io_seg $end
   $var wire 1 @ io_full $end
   $var wire 32 F tick_tickCnt $end
   $var wire 4 I Number2Full $end
   $var wire 2 M CountTo4 $end
   $var wire 4 Q io_an $end
   $var wire 1 R decoder $end
   $var wire 4 V Number4Full $end
   $var wire 32 d tick_sec_tickCnt $end
   $var wire 1 j tick_sec $end
   $var wire 1 k tick $end
   $var wire 1 t FullSequence $end
   $var wire 4 u Number1Full $end
   $var wire 8 "& io_sum $end
   $var wire 4 "( CountTo16 $end
    $scope module decoder $end
     $var wire 7 7 io_out $end
     $var wire 4 ? io_in $end
     $var wire 7 "F sevSeg $end
    $upscope $end
  $upscope $end
  $scope module SerialComs.uart.tx $end
  $upscope $end
  $scope module SerialComs $end
   $var wire 5 ! io_price $end
   $var wire 4 ) formattedPrice_tens $end
   $var wire 1 * refresh $end
   $var wire 4 0 formattedSum_tens $end
   $var wire 1 9 io_update $end
   $var wire 8 = index $end
   $var wire 7 C formattedPrice_13 $end
   $var wire 7 D formattedPrice_14 $end
   $var wire 7 E formattedPrice_11 $end
   $var wire 7 G formattedPrice_12 $end
   $var wire 7 H formattedPrice_10 $end
   $var wire 4 J formattedSum_hundreds $end
   $var wire 4 P formattedSum_ones $end
   $var wire 7 \ clearCmd_1 $end
   $var wire 7 ] clearCmd_0 $end
   $var wire 7 ^ clearCmd_6 $end
   $var wire 7 _ clearCmd_5 $end
   $var wire 7 ` clearCmd_4 $end
   $var wire 7 a clearCmd_3 $end
   $var wire 7 b clearCmd_2 $end
   $var wire 1 c reset $end
   $var wire 2 r write $end
   $var wire 7 v formattedSum_8 $end
   $var wire 7 w formattedSum_9 $end
   $var wire 7 x formattedSum_4 $end
   $var wire 7 y formattedSum_5 $end
   $var wire 7 z formattedSum_6 $end
   $var wire 7 | formattedSum_7 $end
   $var wire 7 } formattedSum_0 $end
   $var wire 7 "! formattedSum_1 $end
   $var wire 7 "" formattedSum_2 $end
   $var wire 7 "# formattedSum_3 $end
   $var wire 8 "% io_sum $end
   $var wire 1 ") clock $end
   $var wire 4 "+ formattedPrice_ones $end
   $var wire 1 "1 io_tx $end
   $var wire 1 "5 uart $end
   $var wire 7 "8 formattedPrice_7 $end
   $var wire 7 "9 formattedPrice_6 $end
   $var wire 7 ": formattedPrice_9 $end
   $var wire 7 "; formattedPrice_8 $end
   $var wire 4 "< formattedPrice_hundreds $end
   $var wire 7 "= formattedPrice_3 $end
   $var wire 7 "> formattedPrice_2 $end
   $var wire 7 "? formattedPrice_5 $end
   $var wire 7 "@ formattedPrice_4 $end
   $var wire 7 "A formattedPrice_1 $end
   $var wire 7 "B formattedPrice_0 $end
   $var wire 7 "E formattedSum_17 $end
   $var wire 7 "G formattedSum_15 $end
   $var wire 7 "H formattedSum_16 $end
   $var wire 7 "I formattedSum_13 $end
   $var wire 7 "J formattedSum_14 $end
   $var wire 7 "K formattedSum_11 $end
   $var wire 7 "L formattedSum_12 $end
   $var wire 7 "M formattedSum_10 $end
    $scope module uart $end
     $var wire 1 L io_channel_valid $end
     $var wire 1 f clock $end
     $var wire 8 g io_channel_bits $end
     $var wire 1 s reset $end
     $var wire 1 "$ buf $end
     $var wire 1 "' tx $end
     $var wire 1 "D io_channel_ready $end
     $var wire 1 "O io_txd $end
      $scope module tx $end
       $var wire 1 $ io_txd $end
       $var wire 1 % io_channel_ready $end
       $var wire 10 S shift $end
       $var wire 1 Z reset $end
       $var wire 1 e io_channel_valid $end
       $var wire 4 h bitsReg $end
       $var wire 8 p io_channel_bits $end
       $var wire 20 "/ cntReg $end
       $var wire 1 "0 clock $end
       $var wire 11 "4 shiftReg $end
      $upscope $end
      $scope module buf $end
       $var wire 1 - io_in_valid $end
       $var wire 1 < stateReg $end
       $var wire 1 A io_out_valid $end
       $var wire 8 N io_out_bits $end
       $var wire 1 O io_out_ready $end
       $var wire 1 i clock $end
       $var wire 1 { reset $end
       $var wire 1 ~ io_in_ready $end
       $var wire 8 "6 dataReg $end
       $var wire 8 "7 io_in_bits $end
      $upscope $end
    $upscope $end
  $upscope $end
$upscope $end
$enddefinitions $end
$dumpvars
b0000000 "=
b0000000 "?
b0000000 ">
04
b0000000 "9
b00000000 g
05
b0000000 "8
b0000000 ";
b0000000 ":
08
09
0<
0>
0@
b0000000 "M
0A
b0000000 "L
b00000000000000000000000000000000 :
0B
b0000000 "I
b0000000 "H
b0000000 "K
b0000000 "J
b0000000 "E
b0000000 "G
b0000000 "F
0L
b0000000 "A
b0000000 "@
0O
b0000000 "B
b00000000 p
b00000000 K
0R
b0000 #
0T
0U
0W
0X
0Y
0Z
0[
b0000 (
b0000 )
b0000 2
b0000 3
0c
b0000 0
b0000 1
0e
0f
b0000 /
0i
0j
0k
0l
b0000000 "!
0m
b00000000 N
0n
b0000000 "#
0o
b0000000 ""
0q
b00000000 "&
b00000000 "%
0s
0t
0{
0~
b00000000 "7
b00000000000000000000 "/
b00000000 "6
b0000000000 S
0"$
0"'
0")
0"*
0",
0"-
0".
0"0
0"1
0"2
0"5
b00000 "C
b00000 !
b0000000 z
0"D
b0000000 }
b0000000 |
b00000 '
b0000000000 +
b00000 "3
0"N
b0000000 w
0"O
b0000000 v
b0000000 y
b0000000 x
b0000000 b
b0000000 ]
b0000000 \
b0000000 _
b0000000 ^
b0000000 a
b0000000 `
b0000 "(
b0000 "+
b0000 ?
b0000000 C
b0000 J
b0000000 E
b0000000 D
b00000000000000000000000000000000 d
b0000000 G
b0000 I
b00 r
b0000000 H
b0000000 ;
b00000000 =
b00000000000 "4
b0000 P
b0000 Q
b0000 "<
b0000000 7
b0000000 6
b0000 V
b00000000000000000000000000000000 F
b0000 h
b0000 u
0"
0$
b00 M
0%
0&
0*
0,
0-
0.
$end
#0
1"
b1110 #
1%
1&
b1000000 6
b0111111 7
19
b1000000 ;
b1101110 "!
b1110011 ""
b1100101 "#
b1010011 C
b0001010 D
b1000001 E
b1010100 G
b0100000 H
1".
1O
b1110 Q
b0110000 "8
b0100000 "9
b0110000 ":
b0110000 ";
1Z
b1100011 "=
b1011011 \
b1101001 ">
b0011011 ]
b0111010 "?
b1001000 ^
b1100101 "@
b1011011 _
b1110010 "A
b0011011 `
b1010000 "B
b1001010 a
b0110010 b
1"D
1c
b0001010 "E
b0111111 "F
b1010100 "G
b1010011 "H
b0100000 "I
b1000001 "J
b0110000 "K
b0110000 "L
b0110000 "M
1"N
1s
b0111010 v
b0100000 w
b1110010 x
b1110100 y
b1100101 z
1{
b1100100 |
b1001001 }
1~
#1
1$
1f
1")
b1101 (
b1101 I
1i
1"O
1"0
1"1
b11111111111 "4
b1111111111 S
15
b1101 u
b1101 V
1Y
1[
#6
0")
b0111 "+
0".
0"0
b00111 "3
b0110111 ":
0Y
0Z
b00111 !
0"
0c
b0000111 "F
0f
b00111 '
0i
0"N
b0111 1
0s
05
b1111000 6
b0000111 7
b1111000 ;
0{
b0111 ?
#11
b00111 "C
b00000000000000000000000000000001 d
0%
b00000000000000000000000000000001 F
1f
b00011011 g
1")
1i
1L
1-
b00000000001101100011 "/
1"0
0O
b01 r
15
b00011011 "7
1Y
b00000000000000000000000000000001 :
#16
05
0f
0")
0Y
0i
0"0
#21
1A
0"D
b00000000000000000000000000000010 d
1e
b00000000000000000000000000000010 F
1f
b01011011 g
1")
1i
1*
b00000000001101100010 "/
b00011011 N
1"0
b00011011 p
b00011011 "6
15
b01011011 "7
1Y
b00000000000000000000000000000010 :
1<
b00000001 =
0~
#26
05
0f
0")
0Y
0i
0"0
#31
b00000000000000000000000000000011 d
15
b00000000000000000000000000000011 F
1f
1")
1Y
1i
b00000000000000000000000000000011 :
b00000000001101100001 "/
1"0
#36
05
1U
0f
0")
18
0Y
0i
0"0
#41
b00000010 "%
b00000000000000000000000000000100 d
b00000010 "&
b00000000000000000000000000000100 F
1f
1")
1i
b0110010 "L
b00000010 K
b00000000001101100000 "/
1"0
b0010 P
b0010 3
15
08
1Y
b00000000000000000000000000000100 :
1>
#46
05
0f
0")
0Y
0i
0"0
#51
b00000000000000000000000000000101 d
15
b00000000000000000000000000000101 F
1f
1")
1Y
1i
b00000000000000000000000000000101 :
b00000000001101011111 "/
1"0
#56
05
0f
0")
0Y
0i
0"0
#61
b00000000000000000000000000000110 d
15
b00000000000000000000000000000110 F
1f
1")
1Y
1i
b00000000000000000000000000000110 :
b00000000001101011110 "/
1"0
#66
05
0U
0f
0")
0Y
0i
0"0
#71
b00000000000000000000000000000111 d
15
b00000000000000000000000000000111 F
1f
1")
1Y
1i
b00000000000000000000000000000111 :
b00000000001101011101 "/
0>
1"0
#76
05
0f
0")
0Y
0i
0"0
#81
b00000000000000000000000000001000 d
15
b00000000000000000000000000001000 F
1f
1")
1Y
1i
b00000000000000000000000000001000 :
b00000000001101011100 "/
1"0
#86
05
0f
0")
0Y
0i
0"0
#91
b00000000000000000000000000001001 d
15
b00000000000000000000000000001001 F
1f
1")
1Y
1i
b00000000000000000000000000001001 :
b00000000001101011011 "/
1"0
#96
05
0f
0")
0Y
0i
0"0
#101
b00000000000000000000000000001010 d
15
b00000000000000000000000000001010 F
1f
1")
1Y
1i
b00000000000000000000000000001010 :
b00000000001101011010 "/
1"0
#106
05
0f
0")
0Y
0i
0"0
#111
b00000000000000000000000000001011 d
15
b00000000000000000000000000001011 F
1f
1")
1Y
1i
b00000000000000000000000000001011 :
b00000000001101011001 "/
1"0
#116
05
0f
0")
0Y
0i
0"0
#121
b00000000000000000000000000001100 d
15
b00000000000000000000000000001100 F
1f
1")
1Y
1i
b00000000000000000000000000001100 :
b00000000001101011000 "/
1"0
#126
1"2
1T
05
0f
0")
0Y
0i
0"0
#131
1B
b00000111 "%
b00000000000000000000000000001101 d
b00000111 "&
b00000000000000000000000000001101 F
1f
1")
1i
b0110111 "L
b00000111 K
1"N
b00000000001101010111 "/
1"0
b0111 P
0"2
b0111 3
15
1Y
b00000000000000000000000000001101 :
#136
05
0f
0")
0Y
0i
0"0
#141
b00000000000000000000000000001110 d
15
b00000000000000000000000000001110 F
1f
1")
1Y
1i
b00000000000000000000000000001110 :
b00000000001101010110 "/
1"0
#146
05
0f
0")
0Y
0i
0"0
#151
b00000000000000000000000000001111 d
15
b00000000000000000000000000001111 F
1f
1")
1Y
1i
b00000000000000000000000000001111 :
b00000000001101010101 "/
1"0
#156
0T
05
0f
0")
0Y
0i
0"0
#161
0B
b00000000000000000000000000010000 d
15
b00000000000000000000000000010000 F
1f
1")
1Y
1i
b00000000000000000000000000010000 :
b00000000001101010100 "/
1"0
#166
05
0f
0")
0Y
0i
0"0
#171
b00000000000000000000000000010001 d
15
b00000000000000000000000000010001 F
1f
1")
1Y
1i
b00000000000000000000000000010001 :
b00000000001101010011 "/
1"0
#176
05
0f
0")
0Y
0i
0"0
#181
b00000000000000000000000000010010 d
15
b00000000000000000000000000010010 F
1f
1")
1Y
1i
b00000000000000000000000000010010 :
b00000000001101010010 "/
1"0
#186
05
0f
0")
0Y
0i
0"0
#191
b00000000000000000000000000010011 d
b00000000000000000000000000010011 F
1f
1")
1i
1k
b00000000001101010001 "/
1"0
15
1X
1Y
b00000000000000000000000000010011 :
#196
05
0f
0")
0Y
0i
0"0
#201
b1101 #
b00000000000000000000000000010100 d
b0111111 "F
b00000000000000000000000000000000 F
1f
1")
1i
b0000000001 +
0k
b01 M
b00000000001101010000 "/
1"0
b1101 Q
15
b1000000 6
b0111111 7
0X
1Y
b00000000000000000000000000000000 :
b1000000 ;
b0000 ?
#206
05
0f
0")
0Y
0i
0"0
#211
b00000000000000000000000000010101 d
15
b00000000000000000000000000000001 F
1f
1")
1Y
1i
b00000000000000000000000000000001 :
b00000000001101001111 "/
1"0
#216
05
0f
0")
0Y
0i
0"0
#221
b00000000000000000000000000010110 d
15
b00000000000000000000000000000010 F
1f
1")
1Y
1i
b00000000000000000000000000000010 :
b00000000001101001110 "/
1"0
#226
05
0f
0")
0Y
0i
0"0
#231
b00000000000000000000000000010111 d
15
b00000000000000000000000000000011 F
1f
1")
1Y
1i
b00000000000000000000000000000011 :
b00000000001101001101 "/
1"0
#236
1q
05
0f
0")
0Y
0i
1.
0"0
#241
b00000000 "%
b00000000000000000000000000011000 d
b00000000 "&
b00000000000000000000000000000100 F
1f
1")
1i
b0110000 "L
b00000000 K
1"-
0"N
b00000000001101001100 "/
0.
1"0
1o
b0000 P
b0000 3
15
1W
1Y
b00000000000000000000000000000100 :
#246
05
0f
0")
0Y
0i
0"0
#251
b00000000000000000000000000011001 d
15
b00000000000000000000000000000101 F
1f
1")
1Y
1i
b00000000000000000000000000000101 :
b00000000001101001011 "/
1"0
#256
05
0f
0")
0Y
0i
0"0
#261
b00000000000000000000000000011010 d
15
b00000000000000000000000000000110 F
1f
1")
1Y
1i
b00000000000000000000000000000110 :
b00000000001101001010 "/
1"0
#266
0q
05
0f
0")
0Y
0i
0"0
#271
b00000000000000000000000000011011 d
15
b00000000000000000000000000000111 F
1f
1")
1Y
1i
b00000000000000000000000000000111 :
b00000000001101001001 "/
1"0
0o
#276
05
0f
0")
0Y
0i
0"0
#281
b00000000000000000000000000011100 d
15
b00000000000000000000000000001000 F
1f
1")
1Y
1i
b00000000000000000000000000001000 :
b00000000001101001000 "/
1"0
#286
05
0f
0")
0Y
0i
0"0
#291
b00000000000000000000000000011101 d
15
b00000000000000000000000000001001 F
1f
1")
1Y
1i
b00000000000000000000000000001001 :
b00000000001101000111 "/
1"0
#296
05
0f
0")
0Y
0i
0"0
#301
b00000000000000000000000000011110 d
15
b00000000000000000000000000001010 F
1f
1")
1Y
1i
b00000000000000000000000000001010 :
b00000000001101000110 "/
1"0
#306
05
0f
0")
0Y
0i
0"0
#311
b00000000000000000000000000011111 d
15
b00000000000000000000000000001011 F
1f
1")
1Y
1i
b00000000000000000000000000001011 :
b00000000001101000101 "/
1"0
#316
05
0f
0")
0Y
0i
0"0
#321
b00000000000000000000000000100000 d
15
b00000000000000000000000000001100 F
1f
1")
1Y
1i
b00000000000000000000000000001100 :
b00000000001101000100 "/
1"0
#326
05
0f
0")
0Y
0i
0"0
#331
b00000000000000000000000000100001 d
15
b00000000000000000000000000001101 F
1f
1")
1Y
1i
b00000000000000000000000000001101 :
b00000000001101000011 "/
1"0
#336
05
0f
0")
0Y
0i
0"0
#341
b00000000000000000000000000100010 d
15
b00000000000000000000000000001110 F
1f
1")
1Y
1i
b00000000000000000000000000001110 :
b00000000001101000010 "/
1"0
#346
05
0f
0")
0Y
0i
0"0
#351
b00000000000000000000000000100011 d
15
b00000000000000000000000000001111 F
1f
1")
1Y
1i
b00000000000000000000000000001111 :
b00000000001101000001 "/
1"0
#356
05
0f
0")
0Y
0i
0"0
#361
b00000000000000000000000000100100 d
15
b00000000000000000000000000010000 F
1f
1")
1Y
1i
b00000000000000000000000000010000 :
b00000000001101000000 "/
1"0
#366
b00000 "3
0Y
