test_run_dir/FSM_Vending_Machine_should_not_allow_buy_when_poor/FSM.vcd
$date
2026-05-08T21:09+0000
$end
$version
0.2
$end
$comment

$end
$timescale 1ns  $end
$scope module FSM $end
 $var wire 4 % io_an $end
 $var wire 1 * extender $end
 $var wire 1 1 prevBuy $end
 $var wire 1 3 Datapath $end
 $var wire 1 5 buyTrigger $end
 $var wire 1 ; io_buy $end
 $var wire 7 A io_seg $end
 $var wire 3 D stateReg $end
 $var wire 1 F coin2Trigger $end
 $var wire 1 I ButtonDeb2 $end
 $var wire 1 J ButtonDeb1 $end
 $var wire 1 L ButtonDeb3 $end
 $var wire 1 R prevCoin2 $end
 $var wire 1 Z prevCoin5 $end
 $var wire 1 [ DisplayMultiplexer $end
 $var wire 1 ] io_alarm $end
 $var wire 1 b io_releaseCan $end
 $var wire 1 c reset $end
 $var wire 1 h coin5Trigger $end
 $var wire 5 j io_price $end
 $var wire 1 t io_coin5 $end
 $var wire 1 u io_coin2 $end
 $var wire 1 { clock $end
 $var wire 1 "% io_tx $end
  $scope module extender $end
   $var wire 1 ! io_ringAlarm $end
   $var wire 1 $ io_releasing $end
   $var wire 32 G tick_tickCnt $end
   $var wire 1 M tick $end
   $var wire 10 s countSec $end
   $var wire 1 z reset $end
   $var wire 1 | io_alarm $end
   $var wire 1 "" alarm $end
   $var wire 1 "$ io_releaseCan $end
   $var wire 1 "( releaseCan $end
   $var wire 1 ") clock $end
  $upscope $end
  $scope module ButtonDeb2.tickGenerator $end
  $upscope $end
  $scope module DisplayMultiplexer.decoder $end
  $upscope $end
  $scope module ButtonDeb1.tickGenerator $end
  $upscope $end
  $scope module Datapath $end
   $var wire 3 ' io_FSMstate $end
   $var wire 7 , io_money $end
   $var wire 7 S money $end
   $var wire 1 U io_enough $end
   $var wire 1 ` clock $end
   $var wire 1 } io_Full2 $end
   $var wire 1 ~ io_Full5 $end
   $var wire 1 "* reset $end
   $var wire 5 ". io_price $end
  $upscope $end
  $scope module ButtonDeb2 $end
   $var wire 4 E tickCnt $end
   $var wire 1 H sync_REG $end
   $var wire 1 Q io_out $end
   $var wire 1 g tickGenerator $end
   $var wire 1 i sync $end
   $var wire 1 n btnDebReg $end
   $var wire 1 v io_inp $end
   $var wire 1 "& reset $end
   $var wire 1 "2 clock $end
    $scope module tickGenerator $end
     $var wire 1 ) clock $end
     $var wire 32 2 tickCnt $end
     $var wire 1 @ io_tickOut $end
     $var wire 1 "! reset $end
     $var wire 1 "0 tick $end
    $upscope $end
  $upscope $end
  $scope module ButtonDeb1 $end
   $var wire 1 " clock $end
   $var wire 1 / io_out $end
   $var wire 1 0 sync $end
   $var wire 1 : btnDebReg $end
   $var wire 1 = io_inp $end
   $var wire 4 X tickCnt $end
   $var wire 1 a tickGenerator $end
   $var wire 1 f sync_REG $end
   $var wire 1 "- reset $end
    $scope module tickGenerator $end
     $var wire 32 N tickCnt $end
     $var wire 1 "# clock $end
     $var wire 1 "' reset $end
     $var wire 1 "/ tick $end
     $var wire 1 "1 io_tickOut $end
    $upscope $end
  $upscope $end
  $scope module DisplayMultiplexer $end
   $var wire 1 # reset $end
   $var wire 32 & slowTick_tickCnt $end
   $var wire 5 ( io_price $end
   $var wire 4 + Number3Full $end
   $var wire 1 - tick $end
   $var wire 4 6 number4 $end
   $var wire 4 7 number3 $end
   $var wire 4 8 number2 $end
   $var wire 4 9 number1 $end
   $var wire 1 > clock $end
   $var wire 1 ? FullSequence $end
   $var wire 4 B Number1Full $end
   $var wire 7 K io_seg $end
   $var wire 8 P io_sum $end
   $var wire 1 W io_full $end
   $var wire 4 Y CountTo16 $end
   $var wire 32 \ tick_tickCnt $end
   $var wire 4 d Number2Full $end
   $var wire 1 e slowTick $end
   $var wire 2 k CountTo4 $end
   $var wire 4 l io_an $end
   $var wire 1 p decoder $end
   $var wire 4 y Number4Full $end
    $scope module decoder $end
     $var wire 7 C io_out $end
     $var wire 4 V io_in $end
     $var wire 7 ", sevSeg $end
    $upscope $end
  $upscope $end
  $scope module ButtonDeb3 $end
   $var wire 1 . io_out $end
   $var wire 1 4 tickGenerator $end
   $var wire 1 < io_inp $end
   $var wire 1 O sync $end
   $var wire 1 ^ reset $end
   $var wire 1 m sync_REG $end
   $var wire 4 w tickCnt $end
   $var wire 1 x clock $end
   $var wire 1 "+ btnDebReg $end
    $scope module tickGenerator $end
     $var wire 1 T io_tickOut $end
     $var wire 1 _ clock $end
     $var wire 1 o reset $end
     $var wire 1 q tick $end
     $var wire 32 r tickCnt $end
    $upscope $end
  $upscope $end
  $scope module ButtonDeb3.tickGenerator $end
  $upscope $end
$upscope $end
$enddefinitions $end
$dumpvars
00
01
03
04
05
b00000000000000000000000000000000 &
0:
0;
0<
0=
0>
0?
0@
0F
0H
0I
b00000000000000000000000000000000 2
0J
0L
0M
0O
b0000 %
0Q
0R
0T
0U
0W
0Z
b0000 +
0[
0]
0^
0_
0`
0a
b0000000 ",
0b
0c
0e
0f
0g
0h
0i
b0000 8
b0000 9
0m
b0000 6
0n
b0000 7
0o
b00000000 P
0p
0q
0t
0u
0v
0x
0z
0{
0|
0}
0~
b0000000000 s
0"!
0""
0"#
0"$
0"%
0"&
0"'
0"(
0")
0"*
0"+
0"-
0"/
0"0
0"1
0"2
b00000 (
b00000 ".
b0000000 S
b0000000 K
b0000 E
b0000 B
b000 D
b0000000 C
b00 k
b0000000 A
b00000 j
b00000000000000000000000000000000 r
b0000 X
b0000 Y
b0000 V
b0000 d
b000 '
b0000000 ,
b00000000000000000000000000000000 G
b0000 l
0!
0"
0#
b00000000000000000000000000000000 \
0$
0)
0*
b0000 y
0-
b00000000000000000000000000000000 N
0.
b0000 w
0/
$end
#0
1@
b1000000 A
1#
b0111111 C
1c
1"&
b1110 %
1"'
1"*
b0111111 ",
b1000000 K
1"-
b1110 l
1"/
1"0
1o
1"1
1q
1T
1z
1^
1"!
#1
1`
1"#
1"
b1101 B
b1101 d
1")
1)
b1101 +
1"2
1x
b1101 y
1{
1>
1_
#6
0"#
0"&
0"'
0")
0"*
0"-
b01010 ".
0"2
0^
0_
0`
0"
0#
0c
b01010 (
0)
b01010 j
0o
b0001 6
0x
0z
0{
0>
0"!
#11
1`
1"#
1"
b0001 E
b00000000000000000000000000000001 &
b00000000000000000000000000000001 G
1")
1)
1"2
b0001 w
b0001 X
1x
1{
b00000000000000000000000000000001 \
1>
1_
#16
0`
0"#
0"
0")
0)
0"2
0x
1;
0{
1<
0>
0_
#21
1`
1"#
1"
b0010 E
b00000000000000000000000000000010 &
b00000000000000000000000000000010 G
1")
1)
1m
1"2
b0010 w
b0010 X
1x
1{
b00000000000000000000000000000010 \
1>
1_
#26
0`
0"2
0"#
0"
0")
0x
0)
0{
0>
0_
#31
1`
1"#
1"
b0011 E
b00000000000000000000000000000011 &
b00000000000000000000000000000011 G
1")
1)
1O
1"2
b0011 w
b0011 X
1x
1{
b00000000000000000000000000000011 \
1>
1_
#36
0`
0"2
0"#
0"
0")
0x
0)
0{
0>
0_
#41
1`
1"#
1"
b0100 E
b00000000000000000000000000000100 &
b00000000000000000000000000000100 G
1")
1)
1"2
b0100 w
b0100 X
1x
1{
b00000000000000000000000000000100 \
1>
1_
#46
0`
0"2
0"#
0"
0")
0x
0)
0{
0>
0_
#51
1`
1"#
1"
b0000 E
b00000000000000000000000000000101 &
b00000000000000000000000000000101 G
1")
1)
1"+
1.
1"2
15
b0000 w
b0000 X
1x
1{
b00000000000000000000000000000101 \
1>
1_
#56
0`
0"2
0"#
0"
0")
0x
0)
0{
0>
0_
#61
1`
1!
1"#
1"
b011 D
b0001 E
b00000000000000000000000000000110 &
b011 '
b00000000000000000000000000000110 G
1")
1)
1"2
11
05
b0001 w
b0001 X
1x
1{
b00000000000000000000000000000110 \
1>
1_
#66
0`
0"2
0"#
0"
0")
0x
0)
0{
0>
0_
#71
1`
1""
0!
1"#
1"
b000 D
b0010 E
b00000000000000000000000000000111 &
b000 '
b00000000000000000000000000000111 G
1")
1)
1"2
b0010 w
b0010 X
1x
1{
b00000000000000000000000000000111 \
1|
1]
1>
1_
#76
0`
0"2
0"#
0"
0")
0x
0)
0{
0>
0_
#81
1`
1"#
1"
b0011 E
b00000000000000000000000000001000 &
b00000000000000000000000000001000 G
1")
1)
1"2
b0011 w
b0011 X
1x
1{
b00000000000000000000000000001000 \
1>
1_
#86
0`
0"#
0"
0")
0)
0"2
0x
0;
0{
0<
0>
0_
#91
1`
1"#
1"
b0100 E
b00000000000000000000000000001001 &
b00000000000000000000000000001001 G
1")
1)
0m
1"2
b0100 w
b0100 X
1x
1{
b00000000000000000000000000001001 \
1>
1_
#96
b00000 j
0{
