test_run_dir/FSM_Vending_Machine_should_hold_ioalarm_and_ioreleaseCan_high_for_5_seconds/FSM.vcd
$date
2026-05-26T19:51+0000
$end
$version
0.2
$end
$comment

$end
$timescale 1ns  $end
$scope module FSM $end
 $var wire 4 % io_an $end
 $var wire 1 * priceTrigger $end
 $var wire 1 . SerialComs $end
 $var wire 1 0 Datapath $end
 $var wire 1 5 buyTrigger $end
 $var wire 7 = io_seg $end
 $var wire 3 ? stateReg $end
 $var wire 1 A coin2Trigger $end
 $var wire 1 H prevCoin2 $end
 $var wire 1 P prevCoin5 $end
 $var wire 1 a io_coin5 $end
 $var wire 1 b io_coin2 $end
 $var wire 1 e clock $end
 $var wire 1 h io_tx $end
 $var wire 1 z extender $end
 $var wire 1 "! prevBuy $end
 $var wire 1 "$ io_buy $end
 $var wire 1 ". ButtonDeb2 $end
 $var wire 1 "/ ButtonDeb1 $end
 $var wire 1 "0 ButtonDeb3 $end
 $var wire 1 "9 DisplayMultiplexer $end
 $var wire 1 ": io_alarm $end
 $var wire 1 "? io_releaseCan $end
 $var wire 1 "@ reset $end
 $var wire 1 "N coin5Trigger $end
 $var wire 5 "Q io_price $end
 $var wire 5 "k prevPrice $end
  $scope module SerialComs.uart.buf $end
  $upscope $end
  $scope module DisplayMultiplexer.decoder $end
  $upscope $end
  $scope module Datapath $end
   $var wire 3 ( io_FSMstate $end
   $var wire 7 I money $end
   $var wire 1 K io_enough $end
   $var wire 1 l reset $end
   $var wire 7 { io_money $end
   $var wire 1 "= clock $end
   $var wire 1 "d io_Full2 $end
   $var wire 1 "e io_Full5 $end
   $var wire 5 "o io_price $end
  $upscope $end
  $scope module ButtonDeb2 $end
   $var wire 4 @ tickCnt $end
   $var wire 1 Z btnDebReg $end
   $var wire 1 p clock $end
   $var wire 1 "- sync_REG $end
   $var wire 1 "5 io_out $end
   $var wire 1 "M tickGenerator $end
   $var wire 1 "O sync $end
   $var wire 1 "a io_inp $end
   $var wire 1 "j reset $end
    $scope module tickGenerator $end
     $var wire 32 / tickCnt $end
     $var wire 1 < io_tickOut $end
     $var wire 1 o tick $end
     $var wire 1 y clock $end
     $var wire 1 "f reset $end
    $upscope $end
  $upscope $end
  $scope module ButtonDeb1 $end
   $var wire 1 - io_out $end
   $var wire 1 : io_inp $end
   $var wire 4 N tickCnt $end
   $var wire 1 r clock $end
   $var wire 1 ~ sync $end
   $var wire 1 "# btnDebReg $end
   $var wire 1 "> tickGenerator $end
   $var wire 1 "L sync_REG $end
   $var wire 1 "n reset $end
    $scope module tickGenerator $end
     $var wire 1 i reset $end
     $var wire 32 "3 tickCnt $end
     $var wire 1 "h clock $end
     $var wire 1 "q tick $end
     $var wire 1 "r io_tickOut $end
    $upscope $end
  $upscope $end
  $scope module SerialComs.uart.tx $end
  $upscope $end
  $scope module ButtonDeb3 $end
   $var wire 1 4 tickGenerator $end
   $var wire 1 E sync $end
   $var wire 1 Y sync_REG $end
   $var wire 1 c clock $end
   $var wire 1 m btnDebReg $end
   $var wire 1 } io_out $end
   $var wire 1 "% io_inp $end
   $var wire 1 "; reset $end
   $var wire 4 "b tickCnt $end
    $scope module tickGenerator $end
     $var wire 1 J io_tickOut $end
     $var wire 1 [ reset $end
     $var wire 32 ^ tickCnt $end
     $var wire 1 "< clock $end
     $var wire 1 "\ tick $end
    $upscope $end
  $upscope $end
  $scope module extender $end
   $var wire 1 " io_ringAlarm $end
   $var wire 1 $ io_releasing $end
   $var wire 1 1 releasingTrigger $end
   $var wire 1 ` ringAlarmTrigger_REG $end
   $var wire 1 g io_alarm $end
   $var wire 1 j releaseCan $end
   $var wire 1 k clock $end
   $var wire 1 x releasingTrigger_REG $end
   $var wire 32 ", tick_tickCnt $end
   $var wire 1 "2 tick $end
   $var wire 1 "K ringAlarmTrigger $end
   $var wire 10 "` countSec $end
   $var wire 1 "c reset $end
   $var wire 1 "g alarm $end
   $var wire 1 "i io_releaseCan $end
  $upscope $end
  $scope module ButtonDeb2.tickGenerator $end
  $upscope $end
  $scope module ButtonDeb1.tickGenerator $end
  $upscope $end
  $scope module SerialComs.uart $end
  $upscope $end
  $scope module DisplayMultiplexer $end
   $var wire 1 # reset $end
   $var wire 32 ' slowTick_tickCnt $end
   $var wire 5 + io_price $end
   $var wire 4 , Number3Full $end
   $var wire 4 6 number4 $end
   $var wire 4 7 number3 $end
   $var wire 4 8 number2 $end
   $var wire 4 9 number1 $end
   $var wire 1 ; clock $end
   $var wire 7 C io_seg $end
   $var wire 1 M io_full $end
   $var wire 32 Q tick_tickCnt $end
   $var wire 4 R Number2Full $end
   $var wire 2 T CountTo4 $end
   $var wire 4 X io_an $end
   $var wire 1 \ decoder $end
   $var wire 4 d Number4Full $end
   $var wire 1 | tick $end
   $var wire 1 "' FullSequence $end
   $var wire 4 "( Number1Full $end
   $var wire 8 "4 io_sum $end
   $var wire 4 "7 CountTo16 $end
   $var wire 1 "H slowTick $end
    $scope module decoder $end
     $var wire 7 > io_out $end
     $var wire 4 L io_in $end
     $var wire 7 "m sevSeg $end
    $upscope $end
  $upscope $end
  $scope module SerialComs $end
   $var wire 5 ! io_price $end
   $var wire 4 3 ones $end
   $var wire 1 B io_update $end
   $var wire 4 F index $end
   $var wire 4 G ones_1 $end
   $var wire 1 V writing $end
   $var wire 4 _ tens $end
   $var wire 1 n reset $end
   $var wire 4 w tens_1 $end
   $var wire 8 "1 io_sum $end
   $var wire 1 "8 clock $end
   $var wire 8 "C msg_4 $end
   $var wire 1 "D io_tx $end
   $var wire 8 "E msg_5 $end
   $var wire 8 "F msg_2 $end
   $var wire 8 "G msg_3 $end
   $var wire 8 "I msg_0 $end
   $var wire 8 "J msg_1 $end
   $var wire 2 "P writeState $end
   $var wire 8 "R msg_8 $end
   $var wire 8 "S msg_9 $end
   $var wire 8 "T msg_6 $end
   $var wire 8 "U msg_7 $end
   $var wire 1 "W uart $end
   $var wire 8 "Y msg_10 $end
   $var wire 8 "Z msg_11 $end
   $var wire 8 "[ msg_12 $end
   $var wire 8 "] msg_13 $end
   $var wire 8 "^ msg_14 $end
    $scope module uart $end
     $var wire 1 S io_channel_valid $end
     $var wire 1 s clock $end
     $var wire 8 t io_channel_bits $end
     $var wire 1 "& reset $end
     $var wire 1 "+ buf $end
     $var wire 1 "6 tx $end
     $var wire 1 "l io_channel_ready $end
     $var wire 1 "p io_txd $end
      $scope module tx $end
       $var wire 1 & io_txd $end
       $var wire 1 ) io_channel_ready $end
       $var wire 10 ] shift $end
       $var wire 1 f reset $end
       $var wire 1 q io_channel_valid $end
       $var wire 4 u bitsReg $end
       $var wire 8 "" io_channel_bits $end
       $var wire 20 "A cntReg $end
       $var wire 1 "B clock $end
       $var wire 11 "V shiftReg $end
      $upscope $end
      $scope module buf $end
       $var wire 1 2 io_in_valid $end
       $var wire 1 D stateReg $end
       $var wire 1 O io_out_valid $end
       $var wire 8 U io_out_bits $end
       $var wire 1 W io_out_ready $end
       $var wire 1 v clock $end
       $var wire 1 ") reset $end
       $var wire 1 "* io_in_ready $end
       $var wire 8 "X dataReg $end
       $var wire 8 "_ io_in_bits $end
      $upscope $end
    $upscope $end
  $upscope $end
  $scope module ButtonDeb3.tickGenerator $end
  $upscope $end
$upscope $end
$enddefinitions $end
$dumpvars
00
01
02
b00000000000000000000000000000000 ",
b00000000000000000000000000000000 "3
04
b00000000000000000000000000000000 '
05
0:
0;
0<
0A
0B
0D
0E
0H
0J
0K
b00000000 t
b00000000000000000000000000000000 /
0M
0O
0P
b0000 %
0S
0V
0W
b0000 ,
0Y
0Z
0[
0\
0`
0a
0b
b0000 3
0c
b0000000000 "`
0e
0f
0g
0h
0i
0j
b00000000 U
0k
b0000 8
0l
b0000 9
0m
b00000000 ""
b0000 6
0n
b0000 7
0o
0p
0q
0r
0s
0v
b00000000000000000000 "A
0x
0y
0z
0|
0}
0~
b00000000 "1
b00000000 "4
b00000000 "C
b00000000 "G
b00000000 "F
b00000000 "E
b0000000000 ]
b00000000 "J
b00000000 "I
b00000000 "S
b00000000 "R
0"!
b0000000 "m
0"#
0"$
b00000000 "U
0"%
b00000000 "T
0"&
b00000000 "[
0"'
b00000000 "Z
b00000000 "Y
0")
b00000000 "X
0"*
b00000000 "_
0"+
b00000000 "^
b00000000 "]
0"-
0".
0"/
0"0
0"2
0"5
0"6
0"8
0"9
0":
0";
0"<
0"=
0">
0"?
0"@
b00000 !
0"B
b0000000 {
0"D
0"H
b00000 +
b00 "P
0"K
0"L
0"M
0"N
0"O
0"W
0"\
0"a
0"c
b00000000000 "V
0"d
0"e
0"f
0"g
0"h
0"i
0"j
0"l
0"n
0"p
0"q
0"r
b0000 @
b0000 "(
b0000 L
b0000000 C
b00000000000000000000000000000000 ^
b0000 F
b0000000 I
b0000 G
b0000 R
b0000 "7
b0000000 =
b0000000 >
b0000 N
b000 ?
b0000 X
b0000 d
b00000 "k
b000 (
b00000 "o
b0000 _
b00 T
b0000 u
0"
0#
0$
0&
b00000 "Q
0)
0*
0-
0.
b00000000000000000000000000000000 Q
b0000 w
b0000 "b
$end
#0
1"c
b1000000 C
1"&
1"f
1")
1"*
1"j
1J
1"l
b0111111 "m
1"n
1"q
1"r
1W
b1110 X
1";
1[
1"@
1#
b1110 %
1f
1)
1i
1l
1n
1o
1"\
1<
b1000000 =
b0111111 >
#1
b1101 "(
1"h
1"p
b1101 R
1"8
1"<
1"=
b1111111111 ]
1"B
1"D
1c
b1101 d
1e
1&
1h
1k
b1101 ,
1p
1r
1s
b11111111111 "V
1v
1y
1;
#6
0"c
1B
b1111000 C
0"&
0"f
0"h
0")
0"j
b0000111 "m
b0111 L
0"n
b00111 "o
0"8
0";
0"<
0[
0"=
0"@
0"B
b00111 !
0#
0c
0e
0f
0i
1*
b00111 +
0k
0l
0n
b00111 "Q
0p
0r
b0111 3
0s
0v
b0111 7
0y
0;
b1111000 =
b0000111 >
#11
b0001 @
b0001 "b
0B
1"h
b00111 "k
b00000000000000000000000000000001 ",
b0001 N
b00000000000000000000000000000001 Q
1S
1V
1"8
1"<
1"=
1"B
b00110011 "C
1c
b00110010 "E
b00110001 "F
1e
b00111011 "G
b00000000000000000000000000000001 '
b00011011 "I
b01011011 "J
0*
1k
b01 "P
1p
b00011011 "R
b01011011 "S
12
1r
b01101101 "T
1s
b00100000 "U
b00011011 t
1v
b00110010 "Y
b01001010 "Z
1y
b00011011 "[
1;
b01011011 "]
b01001000 "^
b00011011 "_
#16
0"B
1b
0c
0e
0"h
0k
0p
0r
0s
0v
0"8
0y
1:
0"<
0;
0"=
#21
b0010 @
b00011011 ""
b0010 "b
1D
b0001 F
1"h
0"*
b00000000000000000000000000000010 ",
0"l
b0010 N
1O
b00000000000000000000000000000010 Q
b00011011 U
1"8
1"<
1"=
1"B
1c
1e
b00000000000000000000000000000010 '
1"L
1k
1p
1q
1r
1s
b01011011 t
1v
b00011011 "X
1y
1;
b01011011 "_
#26
0"B
0c
0e
0"h
0k
0p
0r
0s
0v
0"8
0y
0"<
0;
0"=
#31
b0011 @
b0011 "b
0D
1"h
1"*
b00000000000000000000000000000011 ",
1"l
b0011 N
0"p
0O
b00000000000000000000000000000011 Q
1"8
0W
1"<
1"=
b1100011011 ]
1"B
0"D
1c
1e
0&
b00000000000000000000000000000011 '
0h
0)
1k
1p
0q
1r
1s
b11000110110 "V
b1011 u
1v
1y
1;
1~
#36
0"B
0c
0e
0"h
0k
0p
0r
0s
0v
0"8
0y
0"<
0;
0"=
#41
b0100 @
b01011011 ""
b0100 "b
1D
b0010 F
1"h
0"*
b00000000000000000000000000000100 ",
0"l
b0100 N
1"p
1O
1"2
b00000000000000000000000000000100 Q
b01011011 U
1"8
1"<
1"=
b1110001101 ]
1"B
1"D
1c
1e
1&
b00000000000000000000000000000100 '
1h
1k
1p
1q
1r
1s
b00110001 t
b11100011011 "V
b1010 u
1v
b01011011 "X
1y
1;
1|
b00110001 "_
#46
0"B
0c
0e
0"h
0k
0p
0r
0s
0v
0"8
0y
0"<
0;
0"=
#51
b0000 @
b0000 "b
1A
1"#
1B
b1000000 C
1"h
b00000000000000000000000000000000 ",
b0111111 "m
b0000 L
b0000 N
0"2
b00000000000000000000000000000000 Q
b01 T
1"8
b1101 X
1"<
1"=
b1111000110 ]
1"B
1c
b1101 %
1e
b00000000000000000000000000000101 '
1k
1-
1p
1r
1s
b11110001101 "V
b1001 u
1v
1y
1;
0|
b1000000 =
b0111111 >
#56
0"B
0b
1"$
0c
1"%
0e
0"h
0k
0p
0r
0s
0v
0"8
0y
0:
0"<
0;
0"=
#61
b0001 @
b0001 "b
0A
0B
1"h
1H
b00000000000000000000000000000001 ",
b0001 N
0"p
b00000000000000000000000000000001 Q
1"8
1Y
1"<
1"=
b1111100011 ]
1"B
0"D
1c
1e
0&
b00000000000000000000000000000110 '
b001 (
0h
0"L
1k
1p
1r
1s
b11111000110 "V
b1000 u
1v
1y
1;
b001 ?
#66
0"B
0c
0e
0"h
0k
0p
0r
0s
0v
0"8
0y
0"<
0;
0"=
#71
b0010 @
b0010 "b
1E
1"h
b0010 G
b0000010 I
b00000000000000000000000000000010 ",
b0010 N
1"p
b00000010 "1
b00000000000000000000000000000010 Q
b00000010 "4
1"8
1"<
1"=
b1111110001 ]
1"B
1"D
1c
1e
1&
b00000000000000000000000000000111 '
b000 (
1h
1k
1p
1r
1s
b11111100011 "V
b0111 u
1v
b0010 9
1y
1;
b0000010 {
0~
b000 ?
#76
0"B
0c
0e
0"h
0k
0p
0r
0s
0v
0"8
0y
0"<
0;
0"=
#81
b0011 @
1"B
b0011 "b
1c
1e
1"h
b00000000000000000000000000001000 '
b00000000000000000000000000000011 ",
1k
b0011 N
1p
b00000000000000000000000000000011 Q
1r
1s
b11111110001 "V
b0110 u
1v
1"8
1y
1"<
1;
1"=
b1111111000 ]
#86
0"B
0c
0e
0"h
0k
0p
0r
0s
0v
0"8
0y
0"<
0;
0"=
#91
b0100 @
b0100 "b
1"h
b00000000000000000000000000000100 ",
b0100 N
0"p
1"2
b00000000000000000000000000000100 Q
1"8
1"<
1"=
b1111111100 ]
1"B
0"D
1c
1e
0&
b00000000000000000000000000001001 '
0h
1k
1p
1r
1s
b11111111000 "V
b0101 u
1v
1y
1;
1|
#96
0"B
0"$
0c
0"%
0e
0"h
0k
0p
0r
0s
0v
0"8
0y
0"<
0;
0"=
#101
b0000 @
b0000 "b
0"#
1B
b0100100 C
1"h
b00000000000000000000000000000000 ",
b1011011 "m
b0010 L
b0000 N
0"2
b00000000000000000000000000000000 Q
b10 T
1"8
b1011 X
0Y
1"<
1"=
b1111111110 ]
1"B
1c
b1011 %
1e
b00000000000000000000000000001010 '
1k
0-
1m
1p
1r
1s
b11111111100 "V
15
b0100 u
1v
1y
1;
0|
b0100100 =
1}
b1011011 >
#106
0"B
0c
0e
0"h
0k
0p
0r
0s
0v
0"8
0y
0"<
0;
0"=
#111
b0001 @
b0001 "b
0B
0E
1"h
0H
b00000000000000000000000000000001 ",
b0001 N
b00000000000000000000000000000001 Q
1"8
1"<
1"=
b1111111111 ]
1"B
1"
1c
1e
b00000000000000000000000000001011 '
b011 (
1"K
1k
1p
1r
1s
b11111111110 "V
05
b0011 u
1v
1y
1;
b011 ?
1"!
#116
0"B
0c
0e
0"h
0k
0p
0r
0s
0v
0"8
0y
0"<
0;
0"=
#121
b0010 @
b0010 "b
1"g
1"h
b00000000000000000000000000000010 ",
b0010 N
1"p
b00000000000000000000000000000010 Q
1"8
1":
1"<
1"=
1`
1"B
0"
1"D
1c
1e
1&
b00000000000000000000000000001100 '
1g
b000 (
1h
0"K
1k
1p
1r
1s
b11111111111 "V
b0010 u
1v
1y
1;
b000 ?
#126
0"B
0c
0e
0"h
0k
0p
0r
0s
0v
0"8
0y
0"<
0;
0"=
#131
b0011 @
0`
1"B
b0011 "b
1c
1e
1"h
b00000000000000000000000000001101 '
b00000000000000000000000000000011 ",
1k
b0011 N
1p
b00000000000000000000000000000011 Q
1r
1s
b0001 u
1v
1"8
1y
1"<
1;
1"=
#136
0"B
0c
0e
0"h
0k
0p
0r
0s
0v
0"8
0y
0"<
0;
0"=
#141
b0100 @
b0100 "b
1"h
b00000000000000000000000000000100 ",
b0100 N
1"2
b00000000000000000000000000000100 Q
1"8
1W
1"<
1"=
1"B
1c
1e
b00000000000000000000000000001110 '
1)
1k
1p
1r
1s
b0000 u
1v
1y
1;
1|
#146
0"B
0c
0e
0"h
0k
0p
0r
0s
0v
0"8
0y
0"<
0;
0"=
#151
b0000 @
b0000 "b
b1000000 C
0D
1"h
1"*
b00000000000000000000000000000000 ",
1"l
b0111111 "m
b0000 L
b0000 N
0"p
0O
0"2
b00000000000000000000000000000000 Q
b11 T
1"8
0W
b0111 X
1"<
1"=
b1101011011 ]
1"B
0"D
1c
b0111 %
1e
0&
b00000000000000000000000000001111 '
0h
0)
1k
0m
1p
0q
1r
1s
b11010110110 "V
b1011 u
1v
1y
1;
0|
b1000000 =
0}
b0111111 >
b0000000001 "`
#156
0"B
0c
0e
0"h
0k
0p
0r
0s
0v
0"8
0y
0"<
0;
0"=
#161
b0001 @
b00110001 ""
b0001 "b
1D
b0011 F
1"h
0"*
b00000000000000000000000000000001 ",
0"l
b0001 N
1"p
1O
b00000000000000000000000000000001 Q
b00110001 U
1"8
1"<
1"=
b1110101101 ]
1"B
1"D
1c
1e
1&
b00000000000000000000000000010000 '
1h
1k
1p
1q
1r
1s
b00111011 t
b11101011011 "V
b1010 u
1v
b00110001 "X
1y
1;
b00111011 "_
0"!
#166
0"B
0c
0e
0"h
0k
0p
0r
0s
0v
0"8
0y
0"<
0;
0"=
#171
b0010 @
1"B
b0010 "b
1c
1e
1"h
b00000000000000000000000000010001 '
b00000000000000000000000000000010 ",
1k
b0010 N
1p
b00000000000000000000000000000010 Q
1r
1s
b11110101101 "V
b1001 u
1v
1"8
1y
1"<
1;
1"=
b1111010110 ]
#176
0"B
0c
0e
0"h
0k
0p
0r
0s
0v
0"8
0y
0"<
0;
0"=
#181
b0011 @
b0011 "b
1"h
b00000000000000000000000000000011 ",
b0011 N
0"p
b00000000000000000000000000000011 Q
1"8
1"<
1"=
b1111101011 ]
1"B
0"D
1c
1e
0&
b00000000000000000000000000010010 '
0h
1k
1p
1r
1s
b11111010110 "V
b1000 u
1v
1y
1;
#186
0"B
0c
0e
0"h
0k
0p
0r
0s
0v
0"8
0y
0"<
0;
0"=
#191
b0100 @
b0100 "b
1"h
b00000000000000000000000000000100 ",
b0100 N
1"p
1"2
b00000000000000000000000000000100 Q
1"8
1"<
1"=
b1111110101 ]
1"B
1"D
1c
1e
1&
1"H
b00000000000000000000000000010011 '
1h
1k
1p
1r
1s
b11111101011 "V
b0111 u
1v
1y
1;
1|
#196
0"B
0c
0e
0"h
0k
0p
0r
0s
0v
0"8
0y
0"<
0;
0"=
#201
b0000 @
b0000 "b
b1111000 C
1"h
b00000000000000000000000000000000 ",
b0000111 "m
b0111 L
b0000 N
0"2
b00000000000000000000000000000000 Q
b00 T
b0001 "7
1"8
b1110 X
1"<
1"=
b1111111010 ]
1"B
1c
b1110 %
1e
0"H
b00000000000000000000000000000000 '
1k
1p
1r
1s
b11111110101 "V
b0110 u
1v
1y
1;
0|
b1111000 =
b0000111 >
b0000000010 "`
#206
0"B
0c
0e
0"h
0k
0p
0r
0s
0v
0"8
0y
0"<
0;
0"=
#211
b0001 @
b0001 "b
1"h
b00000000000000000000000000000001 ",
b0001 N
0"p
b00000000000000000000000000000001 Q
b1100 R
1"8
1"<
1"=
b1111111101 ]
1"B
0"D
1c
1e
0&
b00000000000000000000000000000001 '
0h
1k
1p
1r
1s
b11111111010 "V
b0101 u
1v
1y
1;
#216
0"B
0c
0e
0"h
0k
0p
0r
0s
0v
0"8
0y
0"<
0;
0"=
#221
b0010 @
b0010 "b
1"h
b00000000000000000000000000000010 ",
b0010 N
1"p
b00000000000000000000000000000010 Q
1"8
1"<
1"=
b1111111110 ]
1"B
1"D
1c
1e
1&
b00000000000000000000000000000010 '
1h
1k
1p
1r
1s
b11111111101 "V
b0100 u
1v
1y
1;
#226
0"B
0c
0e
0"h
0k
0p
0r
0s
0v
0"8
0y
0"<
0;
0"=
#231
b0011 @
b0011 "b
1"h
b00000000000000000000000000000011 ",
b0011 N
0"p
b00000000000000000000000000000011 Q
1"8
1"<
1"=
b1111111111 ]
1"B
0"D
1c
1e
0&
b00000000000000000000000000000011 '
0h
1k
1p
1r
1s
b11111111110 "V
b0011 u
1v
1y
1;
#236
0"B
0c
0e
0"h
0k
0p
0r
0s
0v
0"8
0y
0"<
0;
0"=
#241
b0100 @
b0100 "b
1"h
b00000000000000000000000000000100 ",
b0100 N
1"p
1"2
b00000000000000000000000000000100 Q
1"8
1"<
1"=
1"B
1"D
1c
1e
1&
b00000000000000000000000000000100 '
1h
1k
1p
1r
1s
b11111111111 "V
b0010 u
1v
1y
1;
1|
#246
0"B
0c
0e
0"h
0k
0p
0r
0s
0v
0"8
0y
0"<
0;
0"=
#251
b0000 @
b0000 "b
b1000000 C
1"h
b00000000000000000000000000000000 ",
b0111111 "m
b0000 L
b0000 N
0"2
b00000000000000000000000000000000 Q
b01 T
1"8
b1101 X
1"<
1"=
1"B
1c
b1101 %
1e
b00000000000000000000000000000101 '
1k
1p
1r
1s
b0001 u
1v
1y
1;
0|
b1000000 =
b0111111 >
b0000000011 "`
#256
0"B
0c
0e
0"h
0k
0p
0r
0s
0v
0"8
0y
0"<
0;
0"=
#261
b0001 @
1"B
b0001 "b
1c
1e
1"h
b00000000000000000000000000000110 '
1)
b00000000000000000000000000000001 ",
1k
b0001 N
1p
b00000000000000000000000000000001 Q
1r
1s
b0000 u
1v
1"8
1W
1y
1"<
1;
1"=
#266
0"B
0c
0e
0"h
0k
0p
0r
0s
0v
0"8
0y
0"<
0;
0"=
#271
b0010 @
b0010 "b
0D
1"h
1"*
b00000000000000000000000000000010 ",
1"l
b0010 N
0"p
0O
b00000000000000000000000000000010 Q
1"8
0W
1"<
1"=
b1100110001 ]
1"B
0"D
1c
1e
0&
b00000000000000000000000000000111 '
0h
0)
1k
1p
0q
1r
1s
b11001100010 "V
b1011 u
1v
1y
1;
#276
0"B
0c
0e
0"h
0k
0p
0r
0s
0v
0"8
0y
0"<
0;
0"=
#281
b0011 @
b00111011 ""
b0011 "b
1D
b0100 F
1"h
0"*
b00000000000000000000000000000011 ",
0"l
b0011 N
1"p
1O
b00000000000000000000000000000011 Q
b00111011 U
1"8
1"<
1"=
b1110011000 ]
1"B
1"D
1c
1e
1&
b00000000000000000000000000001000 '
1h
1k
1p
1q
1r
1s
b00110011 t
b11100110001 "V
b1010 u
1v
b00111011 "X
1y
1;
b00110011 "_
#286
0"B
0c
0e
0"h
0k
0p
0r
0s
0v
0"8
0y
0"<
0;
0"=
#291
b0100 @
b0100 "b
1"h
b00000000000000000000000000000100 ",
b0100 N
0"p
1"2
b00000000000000000000000000000100 Q
1"8
1"<
1"=
b1111001100 ]
1"B
0"D
1c
1e
0&
b00000000000000000000000000001001 '
0h
1k
1p
1r
1s
b11110011000 "V
b1001 u
1v
1y
1;
1|
#296
0"B
0c
0e
0"h
0k
0p
0r
0s
0v
0"8
0y
0"<
0;
0"=
#301
b0000 @
b0000 "b
b0100100 C
1"h
b00000000000000000000000000000000 ",
b1011011 "m
b0010 L
b0000 N
0"2
b00000000000000000000000000000000 Q
b10 T
1"8
b1011 X
1"<
1"=
b1111100110 ]
1"B
1c
b1011 %
1e
b00000000000000000000000000001010 '
1k
1p
1r
1s
b11111001100 "V
b1000 u
1v
1y
1;
0|
b0100100 =
b1011011 >
b0000000100 "`
#306
0"B
0c
0e
0"h
0k
0p
0r
0s
0v
0"8
0y
0"<
0;
0"=
#311
b0001 @
1"B
b0001 "b
1c
1e
1"h
b00000000000000000000000000001011 '
b00000000000000000000000000000001 ",
1k
b0001 N
1p
b00000000000000000000000000000001 Q
1r
1s
b11111100110 "V
b0111 u
1v
1"8
1y
1"<
1;
1"=
b1111110011 ]
#316
0"B
0c
0e
0"h
0k
0p
0r
0s
0v
0"8
0y
0"<
0;
0"=
#321
b0010 @
b0010 "b
1"h
b00000000000000000000000000000010 ",
b0010 N
1"p
b00000000000000000000000000000010 Q
1"8
1"<
1"=
b1111111001 ]
1"B
1"D
1c
1e
1&
b00000000000000000000000000001100 '
1h
1k
1p
1r
1s
b11111110011 "V
b0110 u
1v
1y
1;
#326
0"B
0c
0e
0"h
0k
0p
0r
0s
0v
0"8
0y
0"<
0;
0"=
#331
b0011 @
1"B
b0011 "b
1c
1e
1"h
b00000000000000000000000000001101 '
b00000000000000000000000000000011 ",
1k
b0011 N
1p
b00000000000000000000000000000011 Q
1r
1s
b11111111001 "V
b0101 u
1v
1"8
1y
1"<
1;
1"=
b1111111100 ]
#336
0"B
0c
0e
0"h
0k
0p
0r
0s
0v
0"8
0y
0"<
0;
0"=
#341
b0100 @
b0100 "b
1"h
b00000000000000000000000000000100 ",
b0100 N
0"p
1"2
b00000000000000000000000000000100 Q
1"8
1"<
1"=
b1111111110 ]
1"B
0"D
1c
1e
0&
b00000000000000000000000000001110 '
0h
1k
1p
1r
1s
b11111111100 "V
b0100 u
1v
1y
1;
1|
#346
0"B
0c
0e
0"h
0k
0p
0r
0s
0v
0"8
0y
0"<
0;
0"=
#351
b0000 @
b0000 "b
b1000000 C
1"h
b00000000000000000000000000000000 ",
b0111111 "m
b0000 L
b0000 N
0"2
b00000000000000000000000000000000 Q
b11 T
1"8
b0111 X
1"<
1"=
b1111111111 ]
1"B
1c
b0111 %
1e
b00000000000000000000000000001111 '
1k
1p
1r
1s
b11111111110 "V
b0011 u
1v
1y
1;
0|
b1000000 =
b0111111 >
b0000000101 "`
#356
0"B
0c
0e
0"h
0k
0p
0r
0s
0v
0"8
0y
0"<
0;
0"=
#361
b0001 @
b0001 "b
0"g
1"h
b00000000000000000000000000000001 ",
b0001 N
1"p
b00000000000000000000000000000001 Q
1"8
0":
1"<
1"=
1"B
1"D
1c
1e
1&
b00000000000000000000000000010000 '
0g
1h
1k
1p
1r
1s
b11111111111 "V
b0010 u
1v
1y
1;
b0000000000 "`
#366
0"B
0c
0e
0"h
0k
0p
0r
0s
0v
0"8
0y
0"<
0;
0"=
#371
b0010 @
1"B
b0010 "b
1c
1e
1"h
b00000000000000000000000000010001 '
b00000000000000000000000000000010 ",
1k
b0010 N
1p
b00000000000000000000000000000010 Q
1r
1s
b0001 u
1v
1"8
1y
1"<
1;
1"=
#376
0"B
0c
0e
0"h
0k
0p
0r
0s
0v
0"8
0y
0"<
0;
0"=
#381
b0011 @
1"B
b0011 "b
1c
1e
1"h
b00000000000000000000000000010010 '
1)
b00000000000000000000000000000011 ",
1k
b0011 N
1p
b00000000000000000000000000000011 Q
1r
1s
b0000 u
1v
1"8
1W
1y
1"<
1;
1"=
#386
0"B
0c
0e
0"h
0k
0p
0r
0s
0v
0"8
0y
0"<
0;
0"=
#391
b0100 @
b0100 "b
0D
1"h
1"*
b00000000000000000000000000000100 ",
1"l
b0100 N
0"p
0O
1"2
b00000000000000000000000000000100 Q
1"8
0W
1"<
1"=
b1100111011 ]
1"B
0"D
1c
1e
0&
1"H
b00000000000000000000000000010011 '
0h
0)
1k
1p
0q
1r
1s
b11001110110 "V
b1011 u
1v
1y
1;
1|
#396
0"B
1a
0c
0e
0"h
0k
0p
0r
0s
0v
0"8
0y
0"<
0;
0"=
1"a
#401
b0000 "b
1"h
0"l
b0000111 "m
1"p
b1110 %
1&
b00000000000000000000000000000000 '
1;
b1111000 =
b0000111 >
b0000 @
b00110011 ""
b1111000 C
1D
b0101 F
b1100 "(
0"*
b00000000000000000000000000000000 ",
1"-
b0111 L
b0000 N
1O
0"2
b00000000000000000000000000000000 Q
b00 T
b00110011 U
b0010 "7
1"8
b1110 X
1"<
1"=
b1110011101 ]
1"B
1"D
1c
1e
0"H
1h
1k
1p
1q
1r
1s
b00110010 t
b11100111011 "V
b1010 u
1v
b00110011 "X
1y
0|
b00110010 "_
#406
0"B
0c
0e
0"h
0k
0p
0r
0s
0v
0"8
0y
0"<
0;
0"=
#411
b0001 @
b0001 "b
1"h
b00000000000000000000000000000001 ",
b0001 N
b00000000000000000000000000000001 Q
1"8
1"<
1"=
b1111001110 ]
1"B
1c
1e
b00000000000000000000000000000001 '
1k
1"O
1p
1r
1s
b11110011101 "V
b1001 u
1v
1y
1;
#416
0"B
0c
0e
0"h
0k
0p
0r
0s
0v
0"8
0y
0"<
0;
0"=
#421
b0010 @
b0010 "b
1"h
b00000000000000000000000000000010 ",
b0010 N
0"p
b00000000000000000000000000000010 Q
1"8
1"<
1"=
b1111100111 ]
1"B
0"D
1c
1e
0&
b00000000000000000000000000000010 '
0h
1k
1p
1r
1s
b11111001110 "V
b1000 u
1v
1y
1;
#426
0"B
0c
0e
0"h
0k
0p
0r
0s
0v
0"8
0y
0"<
0;
0"=
#431
b0011 @
b0011 "b
1"h
b00000000000000000000000000000011 ",
b0011 N
1"p
b00000000000000000000000000000011 Q
1"8
1"<
1"=
b1111110011 ]
1"B
1"D
1c
1e
1&
b00000000000000000000000000000011 '
1h
1k
1p
1r
1s
b11111100111 "V
b0111 u
1v
1y
1;
#436
0"B
0a
1"$
0c
1"%
0e
0"h
0k
0p
0r
0s
0v
0"8
0y
0"<
0;
0"=
0"a
#441
b0100 @
b0100 "b
1"h
b00000000000000000000000000000100 ",
0"-
b0100 N
1"2
b00000000000000000000000000000100 Q
1"8
1Y
1"<
1"=
b1111111001 ]
1"B
1c
1e
b00000000000000000000000000000100 '
1k
1p
1r
1s
b11111110011 "V
b0110 u
1v
1y
1;
1|
#446
0"B
0c
0e
0"h
0k
0p
0r
0s
0v
0"8
0y
0"<
0;
0"=
