test_run_dir/FSM_Vending_Machine_should_5_sec_alarm_for_poor_people/FSM.vcd
$date
2026-05-08T21:27+0000
$end
$version
0.2
$end
$comment

$end
$timescale 1ns  $end
$scope module FSM $end
 $var wire 4 % io_an $end
 $var wire 1 * priceTrigger $end
 $var wire 1 . SerialComs $end
 $var wire 1 0 Datapath $end
 $var wire 1 4 buyTrigger $end
 $var wire 7 < io_seg $end
 $var wire 3 > stateReg $end
 $var wire 1 @ coin2Trigger $end
 $var wire 1 G prevCoin2 $end
 $var wire 1 O prevCoin5 $end
 $var wire 1 _ io_coin5 $end
 $var wire 1 ` io_coin2 $end
 $var wire 1 c clock $end
 $var wire 1 f io_tx $end
 $var wire 1 w extender $end
 $var wire 1 | prevBuy $end
 $var wire 1 "! io_buy $end
 $var wire 1 "+ ButtonDeb2 $end
 $var wire 1 ", ButtonDeb1 $end
 $var wire 1 "- ButtonDeb3 $end
 $var wire 1 "6 DisplayMultiplexer $end
 $var wire 1 "7 io_alarm $end
 $var wire 1 "< io_releaseCan $end
 $var wire 1 "= reset $end
 $var wire 1 "J coin5Trigger $end
 $var wire 5 "M io_price $end
 $var wire 5 "g prevPrice $end
  $scope module SerialComs.uart.buf $end
  $upscope $end
  $scope module DisplayMultiplexer.decoder $end
  $upscope $end
  $scope module Datapath $end
   $var wire 3 ( io_FSMstate $end
   $var wire 7 H money $end
   $var wire 1 J io_enough $end
   $var wire 1 j reset $end
   $var wire 7 x io_money $end
   $var wire 1 ": clock $end
   $var wire 1 "` io_Full2 $end
   $var wire 1 "a io_Full5 $end
   $var wire 5 "k io_price $end
  $upscope $end
  $scope module ButtonDeb2 $end
   $var wire 4 ? tickCnt $end
   $var wire 1 Y btnDebReg $end
   $var wire 1 n clock $end
   $var wire 1 "* sync_REG $end
   $var wire 1 "2 io_out $end
   $var wire 1 "I tickGenerator $end
   $var wire 1 "K sync $end
   $var wire 1 "] io_inp $end
   $var wire 1 "f reset $end
    $scope module tickGenerator $end
     $var wire 32 / tickCnt $end
     $var wire 1 ; io_tickOut $end
     $var wire 1 m tick $end
     $var wire 1 v clock $end
     $var wire 1 "b reset $end
    $upscope $end
  $upscope $end
  $scope module ButtonDeb1 $end
   $var wire 1 - io_out $end
   $var wire 1 9 io_inp $end
   $var wire 4 M tickCnt $end
   $var wire 1 p clock $end
   $var wire 1 { sync $end
   $var wire 1 ~ btnDebReg $end
   $var wire 1 "; tickGenerator $end
   $var wire 1 "H sync_REG $end
   $var wire 1 "j reset $end
    $scope module tickGenerator $end
     $var wire 1 g reset $end
     $var wire 32 "0 tickCnt $end
     $var wire 1 "d clock $end
     $var wire 1 "m tick $end
     $var wire 1 "n io_tickOut $end
    $upscope $end
  $upscope $end
  $scope module SerialComs.uart.tx $end
  $upscope $end
  $scope module ButtonDeb3 $end
   $var wire 1 3 tickGenerator $end
   $var wire 1 D sync $end
   $var wire 1 X sync_REG $end
   $var wire 1 a clock $end
   $var wire 1 k btnDebReg $end
   $var wire 1 z io_out $end
   $var wire 1 "" io_inp $end
   $var wire 1 "8 reset $end
   $var wire 4 "^ tickCnt $end
    $scope module tickGenerator $end
     $var wire 1 I io_tickOut $end
     $var wire 1 Z reset $end
     $var wire 32 ] tickCnt $end
     $var wire 1 "9 clock $end
     $var wire 1 "X tick $end
    $upscope $end
  $upscope $end
  $scope module extender $end
   $var wire 1 " io_ringAlarm $end
   $var wire 1 $ io_releasing $end
   $var wire 1 e io_alarm $end
   $var wire 1 h releaseCan $end
   $var wire 1 i clock $end
   $var wire 32 ") tick_tickCnt $end
   $var wire 1 "/ tick $end
   $var wire 10 "\ countSec $end
   $var wire 1 "_ reset $end
   $var wire 1 "c alarm $end
   $var wire 1 "e io_releaseCan $end
  $upscope $end
  $scope module ButtonDeb2.tickGenerator $end
  $upscope $end
  $scope module ButtonDeb1.tickGenerator $end
  $upscope $end
  $scope module SerialComs.uart $end
  $upscope $end
  $scope module DisplayMultiplexer $end
   $var wire 1 # reset $end
   $var wire 32 ' slowTick_tickCnt $end
   $var wire 5 + io_price $end
   $var wire 4 , Number3Full $end
   $var wire 4 5 number4 $end
   $var wire 4 6 number3 $end
   $var wire 4 7 number2 $end
   $var wire 4 8 number1 $end
   $var wire 1 : clock $end
   $var wire 7 B io_seg $end
   $var wire 1 L io_full $end
   $var wire 32 P tick_tickCnt $end
   $var wire 4 Q Number2Full $end
   $var wire 2 S CountTo4 $end
   $var wire 4 W io_an $end
   $var wire 1 [ decoder $end
   $var wire 4 b Number4Full $end
   $var wire 1 y tick $end
   $var wire 1 "$ FullSequence $end
   $var wire 4 "% Number1Full $end
   $var wire 8 "1 io_sum $end
   $var wire 4 "4 CountTo16 $end
   $var wire 1 "E slowTick $end
    $scope module decoder $end
     $var wire 7 = io_out $end
     $var wire 4 K io_in $end
     $var wire 7 "i sevSeg $end
    $upscope $end
  $upscope $end
  $scope module SerialComs $end
   $var wire 5 ! io_price $end
   $var wire 4 2 ones $end
   $var wire 1 A io_update $end
   $var wire 4 E index $end
   $var wire 4 F ones_1 $end
   $var wire 1 U writing $end
   $var wire 4 ^ tens $end
   $var wire 1 l reset $end
   $var wire 4 u tens_1 $end
   $var wire 8 ". io_sum $end
   $var wire 1 "5 clock $end
   $var wire 8 "@ msg_4 $end
   $var wire 1 "A io_tx $end
   $var wire 8 "B msg_5 $end
   $var wire 8 "C msg_2 $end
   $var wire 8 "D msg_3 $end
   $var wire 8 "F msg_0 $end
   $var wire 8 "G msg_1 $end
   $var wire 2 "L writeState $end
   $var wire 8 "N msg_8 $end
   $var wire 8 "O msg_9 $end
   $var wire 8 "P msg_6 $end
   $var wire 8 "Q msg_7 $end
   $var wire 1 "S uart $end
   $var wire 8 "U msg_10 $end
   $var wire 8 "V msg_11 $end
   $var wire 8 "W msg_12 $end
   $var wire 8 "Y msg_13 $end
   $var wire 8 "Z msg_14 $end
    $scope module uart $end
     $var wire 1 R io_channel_valid $end
     $var wire 1 q clock $end
     $var wire 8 r io_channel_bits $end
     $var wire 1 "# reset $end
     $var wire 1 "( buf $end
     $var wire 1 "3 tx $end
     $var wire 1 "h io_channel_ready $end
     $var wire 1 "l io_txd $end
      $scope module tx $end
       $var wire 1 & io_txd $end
       $var wire 1 ) io_channel_ready $end
       $var wire 10 \ shift $end
       $var wire 1 d reset $end
       $var wire 1 o io_channel_valid $end
       $var wire 4 s bitsReg $end
       $var wire 8 } io_channel_bits $end
       $var wire 20 "> cntReg $end
       $var wire 1 "? clock $end
       $var wire 11 "R shiftReg $end
      $upscope $end
      $scope module buf $end
       $var wire 1 1 io_in_valid $end
       $var wire 1 C stateReg $end
       $var wire 1 N io_out_valid $end
       $var wire 8 T io_out_bits $end
       $var wire 1 V io_out_ready $end
       $var wire 1 t clock $end
       $var wire 1 "& reset $end
       $var wire 1 "' io_in_ready $end
       $var wire 8 "T dataReg $end
       $var wire 8 "[ io_in_bits $end
      $upscope $end
    $upscope $end
  $upscope $end
  $scope module ButtonDeb3.tickGenerator $end
  $upscope $end
$upscope $end
$enddefinitions $end
$dumpvars
00
01
03
04
b00000000000000000000000000000000 '
b00000000000000000000000000000000 "0
09
0:
0;
b00000000000000000000000000000000 ")
0@
0A
b00000000 }
0C
0D
0G
0I
b00000000 r
0J
0L
b00000000000000000000000000000000 /
0N
0O
b0000 %
0R
0U
0V
b0000 ,
0X
0Y
0Z
0[
0_
0`
b0000 5
b0000000000 "\
0a
b0000 2
0c
0d
0e
0f
0g
0h
0i
0j
0k
b00000000 T
b0000 8
0l
0m
b0000 6
0n
b0000 7
0o
b00000000000000000000 ">
0p
0q
0t
0v
0w
0y
b00000000 ".
0z
0{
0|
0~
b00000000 "1
b00000000 "C
b00000000 "B
b00000000 "@
b00000000 "G
b00000000 "F
b00000000 "D
b0000000000 \
b00000000 "O
b00000000 "N
b00000000 "Q
0"!
b00000000 "P
0""
b00000000 "W
0"#
b00000000 "V
0"$
b00000000 "U
b00000000 "T
0"&
b00000000 "[
b0000000 "i
0"'
b00000000 "Z
0"(
b00000000 "Y
0"*
0"+
0",
0"-
0"/
0"2
0"3
0"5
0"6
b00000 "M
0"7
0"8
0"9
0":
0";
0"<
0"=
0"?
b00000 !
0"A
0"E
0"H
0"I
0"J
b00000 +
0"K
b00 "L
b0000000 x
0"S
0"X
0"]
0"_
0"`
0"a
0"b
0"c
0"d
0"e
0"f
b00000000000 "R
0"h
0"j
0"l
0"m
0"n
b0000 "%
b0000 E
b0000 ?
b0000 M
b0000000 B
b0000 K
b0000 F
b0000000 H
b0000 "4
b0000000 =
b0000000 <
b0000 Q
b000 >
b0000 W
b0000 b
b00000 "k
b000 (
b0000 ^
b00 S
b00000 "g
b0000 u
0"
b00000000000000000000000000000000 ]
b0000 s
0#
0$
0&
0)
0*
b0000 "^
0-
0.
b00000000000000000000000000000000 P
$end
#0
1"b
1"#
b1000000 B
1"&
1"f
1"'
1"h
b0111111 "i
1"j
1I
1"m
1"n
1V
1"8
b1110 W
1Z
1"=
1#
1d
b1110 %
1g
1)
1j
1l
1m
1"X
1;
b1000000 <
b0111111 =
1"_
#1
1"d
b1101 "%
1"l
b1101 Q
1"5
1"9
1":
b1111111111 \
1"?
1"A
1a
b1101 b
1c
1&
1f
1i
b1101 ,
1n
1p
b11111111111 "R
1q
1t
1v
1:
#6
0"b
1A
0"#
0"d
0"&
0"f
0"j
b01010 "k
0"5
0"8
0"9
0":
0Z
0"=
0"?
b0001 ^
b01010 !
0a
0#
0c
0d
0g
0i
1*
0j
b01010 +
b01010 "M
0l
0n
0p
0q
0t
b0001 5
0v
0:
0"_
#11
0A
1"d
b01010 "g
b00000000000000000000000000000001 ")
b0001 M
b00000000000000000000000000000001 P
1R
1"5
1U
1"9
1":
1"?
b00110011 "@
b00110010 "B
1a
b00110001 "C
b00111011 "D
1c
b00011011 "F
b01011011 "G
b00000000000000000000000000000001 '
1i
0*
b01 "L
b00011011 "N
b01011011 "O
1n
b01101101 "P
b00100000 "Q
1p
11
1q
b00011011 r
b00110010 "U
1t
b01001010 "V
b00011011 "W
1v
b01011011 "Y
b01001000 "Z
b00011011 "[
1:
b0001 "^
b0001 ?
#16
1""
0a
0"d
0c
0i
0n
0p
0q
0"5
0t
0v
0"9
0":
0:
0"?
1"!
#21
1"d
1C
b0001 E
0"'
0"h
b00000000000000000000000000000010 ")
b0010 M
1N
b00000000000000000000000000000010 P
1"5
b00011011 T
1"9
1X
1":
1"?
1a
1c
b00000000000000000000000000000010 '
1i
1n
1o
1p
1q
b01011011 r
b00011011 "T
1t
1v
b01011011 "[
1:
b0010 "^
b00011011 }
b0010 ?
#26
0a
0"d
0c
0i
0n
0p
0q
0"5
0t
0v
0"9
0":
0:
0"?
#31
1"d
0C
1D
1"'
1"h
b00000000000000000000000000000011 ")
0"l
b0011 M
0N
b00000000000000000000000000000011 P
1"5
0V
1"9
1":
b1100011011 \
1"?
0"A
1a
1c
0&
0f
b00000000000000000000000000000011 '
0)
1i
1n
0o
1p
b11000110110 "R
1q
b1011 s
1t
1v
1:
b0011 "^
b0011 ?
#36
0a
0"d
0c
0i
0n
0p
0q
0"5
0t
0v
0"9
0":
0:
0"?
#41
1"d
1C
b0010 E
0"'
0"h
b00000000000000000000000000000100 ")
1"l
b0100 M
1N
b00000000000000000000000000000100 P
1"5
b01011011 T
1"9
1":
b1110001101 \
1"?
1"A
1a
1c
1&
1f
b00000000000000000000000000000100 '
1i
1n
1o
1p
b11100011011 "R
1q
b00110001 r
b01011011 "T
b1010 s
1t
1v
b00110001 "[
1:
b0100 "^
b01011011 }
b0100 ?
#46
0a
0"d
0c
0i
0n
0p
0q
0"5
0t
0v
0"9
0":
0:
0"?
#51
1A
1"d
b00000000000000000000000000000101 ")
b0000 M
b00000000000000000000000000000101 P
1"5
1"9
1":
b1111000110 \
1"?
1a
1c
b00000000000000000000000000000101 '
1i
1k
1n
1p
b11110001101 "R
1q
b1001 s
14
1t
1v
1:
1z
b0000 "^
b0000 ?
#56
0a
0"d
0c
0i
0n
0p
0q
0"5
0t
0v
0"9
0":
0:
0"?
#61
0A
1"d
b00000000000000000000000000000110 ")
0"l
b0001 M
b00000000000000000000000000000110 P
1"5
1"9
1":
b1111100011 \
1"?
0"A
1a
1"
1c
0&
0f
b00000000000000000000000000000110 '
b011 (
1i
1n
1p
b11111000110 "R
1q
b1000 s
04
1t
1v
1:
1|
b0001 "^
b011 >
b0001 ?
#66
0a
0"d
0c
0i
0n
0p
0q
0"5
0t
0v
0"9
0":
0:
0"?
#71
1"c
1"d
b00000000000000000000000000000111 ")
1"l
b0010 M
b00000000000000000000000000000111 P
1"5
1"7
1"9
1":
b1111110001 \
1"?
1"A
1a
0"
1c
1e
1&
1f
b00000000000000000000000000000111 '
b000 (
1i
1n
1p
b11111100011 "R
1q
b0111 s
1t
1v
1:
b0010 "^
b000 >
b0010 ?
#76
0a
0"d
0c
0i
0n
0p
0q
0"5
0t
0v
0"9
0":
0:
0"?
#81
1a
1"d
1c
b00000000000000000000000000001000 '
b00000000000000000000000000001000 ")
1i
b0011 M
1n
b00000000000000000000000000001000 P
1p
b11111110001 "R
1q
b0110 s
1"5
1t
1v
1"9
1":
1:
b1111111000 \
b0011 "^
1"?
b0011 ?
#86
0a
0"d
0c
0i
0n
0p
0q
0"5
0t
0v
0"9
0":
0:
0"?
#91
1"d
b00000000000000000000000000001001 ")
0"l
b0100 M
b00000000000000000000000000001001 P
1"5
1"9
1":
b1111111100 \
1"?
0"A
1a
1c
0&
0f
b00000000000000000000000000001001 '
1i
1n
1p
b11111111000 "R
1q
b0101 s
1t
1v
1:
b0100 "^
b0100 ?
#96
0a
0"d
0c
0i
0n
0p
0q
0"5
0t
0v
0"9
0":
0:
0"?
#101
1a
1"d
1c
b00000000000000000000000000001010 '
b00000000000000000000000000001010 ")
1i
b0000 M
1n
b00000000000000000000000000001010 P
1p
b11111111100 "R
1q
b0100 s
1"5
1t
1v
1"9
1":
1:
b1111111110 \
b0000 "^
1"?
b0000 ?
#106
0a
0"d
0c
0i
0n
0p
0q
0"5
0t
0v
0"9
0":
0:
0"?
#111
1a
1"d
1c
b00000000000000000000000000001011 '
b00000000000000000000000000001011 ")
1i
b0001 M
1n
b00000000000000000000000000001011 P
1p
b11111111110 "R
1q
b0011 s
1"5
1t
1v
1"9
1":
1:
b1111111111 \
b0001 "^
1"?
b0001 ?
#116
0a
0"d
0c
0i
0n
0p
0q
0"5
0t
0v
0"9
0":
0:
0"?
#121
1"d
b00000000000000000000000000001100 ")
1"l
b0010 M
b00000000000000000000000000001100 P
1"5
1"9
1":
1"?
1"A
1a
1c
1&
1f
b00000000000000000000000000001100 '
1i
1n
1p
b11111111111 "R
1q
b0010 s
1t
1v
1:
b0010 "^
b0010 ?
#126
0a
0"d
0c
0i
0n
0p
0q
0"5
0t
0v
0"9
0":
0:
0"?
#131
1a
1"d
1c
b00000000000000000000000000001101 '
b00000000000000000000000000001101 ")
1i
b0011 M
1n
b00000000000000000000000000001101 P
1p
1q
b0001 s
1"5
1t
1v
1"9
1":
1:
b0011 "^
1"?
b0011 ?
#136
0a
0"d
0c
0i
0n
0p
0q
0"5
0t
0v
0"9
0":
0:
0"?
#141
1a
1"d
1c
b00000000000000000000000000001110 '
b00000000000000000000000000001110 ")
1)
1i
b0100 M
1n
b00000000000000000000000000001110 P
1p
1q
b0000 s
1"5
1t
1V
1v
1"9
1":
1:
b0100 "^
1"?
b0100 ?
#146
0a
0"d
0c
0i
0n
0p
0q
0"5
0t
0v
0"9
0":
0:
0"?
#151
1"d
0C
1"'
1"h
b00000000000000000000000000001111 ")
0"l
b0000 M
0N
b00000000000000000000000000001111 P
1"5
0V
1"9
1":
b1101011011 \
1"?
0"A
1a
1c
0&
0f
b00000000000000000000000000001111 '
0)
1i
1n
0o
1p
b11010110110 "R
1q
b1011 s
1t
1v
1:
b0000 "^
b0000 ?
#156
0a
0"d
0c
0i
0n
0p
0q
0"5
0t
0v
0"9
0":
0:
0"?
#161
1"d
1C
b0011 E
0"'
0"h
b00000000000000000000000000010000 ")
1"l
b0001 M
1N
b00000000000000000000000000010000 P
1"5
b00110001 T
1"9
1":
b1110101101 \
1"?
1"A
1a
1c
1&
1f
b00000000000000000000000000010000 '
1i
1n
1o
1p
b11101011011 "R
1q
b00111011 r
b00110001 "T
b1010 s
1t
1v
b00111011 "[
1:
b0001 "^
b00110001 }
b0001 ?
#166
0a
0"d
0c
0i
0n
0p
0q
0"5
0t
0v
0"9
0":
0:
0"?
#171
1a
1"d
1c
b00000000000000000000000000010001 '
b00000000000000000000000000010001 ")
1i
b0010 M
1n
b00000000000000000000000000010001 P
1p
b11110101101 "R
1q
b1001 s
1"5
1t
1v
1"9
1":
1:
b1111010110 \
b0010 "^
1"?
b0010 ?
#176
0a
0"d
0c
0i
0n
0p
0q
0"5
0t
0v
0"9
0":
0:
0"?
#181
1"d
b00000000000000000000000000010010 ")
0"l
b0011 M
b00000000000000000000000000010010 P
1"5
1"9
1":
b1111101011 \
1"?
0"A
1a
1c
0&
0f
b00000000000000000000000000010010 '
1i
1n
1p
b11111010110 "R
1q
b1000 s
1t
1v
1:
b0011 "^
b0011 ?
#186
0a
0"d
0c
0i
0n
0p
0q
0"5
0t
0v
0"9
0":
0:
0"?
#191
1"d
b00000000000000000000000000010011 ")
1"l
b0100 M
1"/
b00000000000000000000000000010011 P
1"5
1"9
1":
b1111110101 \
1"?
1"A
1a
1c
1&
1f
b00000000000000000000000000010011 '
1i
1n
1p
b11111101011 "R
1q
b0111 s
1t
1v
1y
1:
b0100 "^
b0100 ?
#196
0a
0"d
0c
0i
0n
0p
0q
0"5
0t
0v
0"9
0":
0:
0"?
#201
b1111001 B
1"d
b00000000000000000000000000000000 ")
b0000110 "i
b0001 K
b0000 M
0"/
b00000000000000000000000000000000 P
b01 S
1"5
b1101 W
1"9
1":
b1111111010 \
1"?
1a
1c
b1101 %
b00000000000000000000000000010100 '
1i
1n
1p
b11111110101 "R
1q
b0110 s
1t
1v
0y
1:
b0000000001 "\
b1111001 <
b0000 "^
b0000110 =
b0000 ?
#206
0a
0"d
0c
0i
0n
0p
0q
0"5
0t
0v
0"9
0":
0:
0"?
#211
1"d
b00000000000000000000000000000001 ")
0"l
b0001 M
b00000000000000000000000000000001 P
1"5
1"9
1":
b1111111101 \
1"?
0"A
1a
1c
0&
0f
b00000000000000000000000000010101 '
1i
1n
1p
b11111111010 "R
1q
b0101 s
1t
1v
1:
b0001 "^
b0001 ?
#216
0a
0"d
0c
0i
0n
0p
0q
0"5
0t
0v
0"9
0":
0:
0"?
#221
1"d
b00000000000000000000000000000010 ")
1"l
b0010 M
b00000000000000000000000000000010 P
1"5
1"9
1":
b1111111110 \
1"?
1"A
1a
1c
1&
1f
b00000000000000000000000000010110 '
1i
1n
1p
b11111111101 "R
1q
b0100 s
1t
1v
1:
b0010 "^
b0010 ?
#226
0a
0"d
0c
0i
0n
0p
0q
0"5
0t
0v
0"9
0":
0:
0"?
#231
1"d
b00000000000000000000000000000011 ")
0"l
b0011 M
b00000000000000000000000000000011 P
1"5
1"9
1":
b1111111111 \
1"?
0"A
1a
1c
0&
0f
b00000000000000000000000000010111 '
1i
1n
1p
b11111111110 "R
1q
b0011 s
1t
1v
1:
b0011 "^
b0011 ?
#236
0a
0"d
0c
0i
0n
0p
0q
0"5
0t
0v
0"9
0":
0:
0"?
#241
1"d
b00000000000000000000000000000100 ")
1"l
b0100 M
b00000000000000000000000000000100 P
1"5
1"9
1":
1"?
1"A
1a
1c
1&
1f
b00000000000000000000000000011000 '
1i
1n
1p
b11111111111 "R
1q
b0010 s
1t
1v
1:
b0100 "^
b0100 ?
#246
0a
0"d
0c
0i
0n
0p
0q
0"5
0t
0v
0"9
0":
0:
0"?
#251
1a
1"d
1c
b00000000000000000000000000011001 '
b00000000000000000000000000000101 ")
1i
b0000 M
1n
b00000000000000000000000000000101 P
1p
1q
b0001 s
1"5
1t
1v
1"9
1":
1:
b0000 "^
1"?
b0000 ?
#256
0a
0"d
0c
0i
0n
0p
0q
0"5
0t
0v
0"9
0":
0:
0"?
#261
1a
1"d
1c
b00000000000000000000000000011010 '
b00000000000000000000000000000110 ")
1)
1i
b0001 M
1n
b00000000000000000000000000000110 P
1p
1q
b0000 s
1"5
1t
1V
1v
1"9
1":
1:
b0001 "^
1"?
b0001 ?
#266
0a
0"d
0c
0i
0n
0p
0q
0"5
0t
0v
0"9
0":
0:
0"?
#271
1"d
0C
1"'
1"h
b00000000000000000000000000000111 ")
0"l
b0010 M
0N
b00000000000000000000000000000111 P
1"5
0V
1"9
1":
b1100110001 \
1"?
0"A
1a
1c
0&
0f
b00000000000000000000000000011011 '
0)
1i
1n
0o
1p
b11001100010 "R
1q
b1011 s
1t
1v
1:
b0010 "^
b0010 ?
#276
0a
0"d
0c
0i
0n
0p
0q
0"5
0t
0v
0"9
0":
0:
0"?
#281
1"d
1C
b0100 E
0"'
0"h
b00000000000000000000000000001000 ")
1"l
b0011 M
1N
b00000000000000000000000000001000 P
1"5
b00111011 T
1"9
1":
b1110011000 \
1"?
1"A
1a
1c
1&
1f
b00000000000000000000000000011100 '
1i
1n
1o
1p
b11100110001 "R
1q
b00110011 r
b00111011 "T
b1010 s
1t
1v
b00110011 "[
1:
b0011 "^
b00111011 }
b0011 ?
#286
0a
0"d
0c
0i
0n
0p
0q
0"5
0t
0v
0"9
0":
0:
0"?
#291
1"d
b00000000000000000000000000001001 ")
0"l
b0100 M
b00000000000000000000000000001001 P
1"5
1"9
1":
b1111001100 \
1"?
0"A
1a
1c
0&
0f
b00000000000000000000000000011101 '
1i
1n
1p
b11110011000 "R
1q
b1001 s
1t
1v
1:
b0100 "^
b0100 ?
#296
0a
0"d
0c
0i
0n
0p
0q
0"5
0t
0v
0"9
0":
0:
0"?
#301
1a
1"d
1c
b00000000000000000000000000011110 '
b00000000000000000000000000001010 ")
1i
b0000 M
1n
b00000000000000000000000000001010 P
1p
b11111001100 "R
1q
b1000 s
1"5
1t
1v
1"9
1":
1:
b1111100110 \
b0000 "^
1"?
b0000 ?
#306
0a
0"d
0c
0i
0n
0p
0q
0"5
0t
0v
0"9
0":
0:
0"?
#311
1a
1"d
1c
b00000000000000000000000000011111 '
b00000000000000000000000000001011 ")
1i
b0001 M
1n
b00000000000000000000000000001011 P
1p
b11111100110 "R
1q
b0111 s
1"5
1t
1v
1"9
1":
1:
b1111110011 \
b0001 "^
1"?
b0001 ?
#316
0a
0"d
0c
0i
0n
0p
0q
0"5
0t
0v
0"9
0":
0:
0"?
#321
1"d
b00000000000000000000000000001100 ")
1"l
b0010 M
b00000000000000000000000000001100 P
1"5
1"9
1":
b1111111001 \
1"?
1"A
1a
1c
1&
1f
b00000000000000000000000000100000 '
1i
1n
1p
b11111110011 "R
1q
b0110 s
1t
1v
1:
b0010 "^
b0010 ?
#326
0a
0"d
0c
0i
0n
0p
0q
0"5
0t
0v
0"9
0":
0:
0"?
#331
1a
1"d
1c
b00000000000000000000000000100001 '
b00000000000000000000000000001101 ")
1i
b0011 M
1n
b00000000000000000000000000001101 P
1p
b11111111001 "R
1q
b0101 s
1"5
1t
1v
1"9
1":
1:
b1111111100 \
b0011 "^
1"?
b0011 ?
#336
0a
0"d
0c
0i
0n
0p
0q
0"5
0t
0v
0"9
0":
0:
0"?
#341
1"d
b00000000000000000000000000001110 ")
0"l
b0100 M
b00000000000000000000000000001110 P
1"5
1"9
1":
b1111111110 \
1"?
0"A
1a
1c
0&
0f
b00000000000000000000000000100010 '
1i
1n
1p
b11111111100 "R
1q
b0100 s
1t
1v
1:
b0100 "^
b0100 ?
#346
0a
0"d
0c
0i
0n
0p
0q
0"5
0t
0v
0"9
0":
0:
0"?
#351
1a
1"d
1c
b00000000000000000000000000100011 '
b00000000000000000000000000001111 ")
1i
b0000 M
1n
b00000000000000000000000000001111 P
1p
b11111111110 "R
1q
b0011 s
1"5
1t
1v
1"9
1":
1:
b1111111111 \
b0000 "^
1"?
b0000 ?
#356
0a
0"d
0c
0i
0n
0p
0q
0"5
0t
0v
0"9
0":
0:
0"?
#361
1"d
b00000000000000000000000000010000 ")
1"l
b0001 M
b00000000000000000000000000010000 P
1"5
1"9
1":
1"?
1"A
1a
1c
1&
1f
b00000000000000000000000000100100 '
1i
1n
1p
b11111111111 "R
1q
b0010 s
1t
1v
1:
b0001 "^
b0001 ?
#366
0a
0"d
0c
0i
0n
0p
0q
0"5
0t
0v
0"9
0":
0:
0"?
#371
1a
1"d
1c
b00000000000000000000000000100101 '
b00000000000000000000000000010001 ")
1i
b0010 M
1n
b00000000000000000000000000010001 P
1p
1q
b0001 s
1"5
1t
1v
1"9
1":
1:
b0010 "^
1"?
b0010 ?
#376
0a
0"d
0c
0i
0n
0p
0q
0"5
0t
0v
0"9
0":
0:
0"?
#381
1a
1"d
1c
b00000000000000000000000000100110 '
b00000000000000000000000000010010 ")
1)
1i
b0011 M
1n
b00000000000000000000000000010010 P
1p
1q
b0000 s
1"5
1t
1V
1v
1"9
1":
1:
b0011 "^
1"?
b0011 ?
#386
0a
0"d
0c
0i
0n
0p
0q
0"5
0t
0v
0"9
0":
0:
0"?
#391
1"d
0C
1"'
1"h
b00000000000000000000000000010011 ")
0"l
b0100 M
1"/
0N
b00000000000000000000000000010011 P
1"5
0V
1"9
1":
b1100111011 \
1"?
0"A
1a
1c
0&
0f
b00000000000000000000000000100111 '
0)
1i
1n
0o
1p
b11001110110 "R
1q
b1011 s
1t
1v
1y
1:
b0100 "^
b0100 ?
#396
0a
0"d
0c
0i
0n
0p
0q
0"5
0t
0v
0"9
0":
0:
0"?
#401
1"d
0"h
b0111111 "i
1"l
b1011 %
1&
b00000000000000000000000000101000 '
1:
b1000000 <
b0111111 =
b0000 ?
b1000000 B
1C
b0101 E
0"'
b00000000000000000000000000000000 ")
b0000 K
b0000 M
0"/
1N
b00000000000000000000000000000000 P
b10 S
1"5
b00110011 T
b1011 W
1"9
1":
b1110011101 \
1"?
1"A
1a
1c
1f
1i
1n
1o
1p
b11100111011 "R
1q
b00110010 r
b00110011 "T
b1010 s
1t
1v
0y
b00110010 "[
b0000000010 "\
b0000 "^
b00110011 }
#406
0a
0"d
0c
0i
0n
0p
0q
0"5
0t
0v
0"9
0":
0:
0"?
#411
1a
1"d
1c
b00000000000000000000000000101001 '
b00000000000000000000000000000001 ")
1i
b0001 M
1n
b00000000000000000000000000000001 P
1p
b11110011101 "R
1q
b1001 s
1"5
1t
1v
1"9
1":
1:
b1111001110 \
b0001 "^
1"?
b0001 ?
#416
0a
0"d
0c
0i
0n
0p
0q
0"5
0t
0v
0"9
0":
0:
0"?
#421
1"d
b00000000000000000000000000000010 ")
0"l
b0010 M
b00000000000000000000000000000010 P
1"5
1"9
1":
b1111100111 \
1"?
0"A
1a
1c
0&
0f
b00000000000000000000000000101010 '
1i
1n
1p
b11111001110 "R
1q
b1000 s
1t
1v
1:
b0010 "^
b0010 ?
#426
0a
0"d
0c
0i
0n
0p
0q
0"5
0t
0v
0"9
0":
0:
0"?
#431
1"d
b00000000000000000000000000000011 ")
1"l
b0011 M
b00000000000000000000000000000011 P
1"5
1"9
1":
b1111110011 \
1"?
1"A
1a
1c
1&
1f
b00000000000000000000000000101011 '
1i
1n
1p
b11111100111 "R
1q
b0111 s
1t
1v
1:
b0011 "^
b0011 ?
#436
0a
0"d
0c
0i
0n
0p
0q
0"5
0t
0v
0"9
0":
0:
0"?
#441
1a
1"d
1c
b00000000000000000000000000101100 '
b00000000000000000000000000000100 ")
1i
b0100 M
1n
b00000000000000000000000000000100 P
1p
b11111110011 "R
1q
b0110 s
1"5
1t
1v
1"9
1":
1:
b1111111001 \
b0100 "^
1"?
b0100 ?
#446
0a
0"d
0c
0i
0n
0p
0q
0"5
0t
0v
0"9
0":
0:
0"?
#451
1a
1"d
1c
b00000000000000000000000000101101 '
b00000000000000000000000000000101 ")
1i
b0000 M
1n
b00000000000000000000000000000101 P
1p
b11111111001 "R
1q
b0101 s
1"5
1t
1v
1"9
1":
1:
b1111111100 \
b0000 "^
1"?
b0000 ?
#456
0a
0"d
0c
0i
0n
0p
0q
0"5
0t
0v
0"9
0":
0:
0"?
#461
1"d
b00000000000000000000000000000110 ")
0"l
b0001 M
b00000000000000000000000000000110 P
1"5
1"9
1":
b1111111110 \
1"?
0"A
1a
1c
0&
0f
b00000000000000000000000000101110 '
1i
1n
1p
b11111111100 "R
1q
b0100 s
1t
1v
1:
b0001 "^
b0001 ?
#466
0a
0"d
0c
0i
0n
0p
0q
0"5
0t
0v
0"9
0":
0:
0"?
#471
1a
1"d
1c
b00000000000000000000000000101111 '
b00000000000000000000000000000111 ")
1i
b0010 M
1n
b00000000000000000000000000000111 P
1p
b11111111110 "R
1q
b0011 s
1"5
1t
1v
1"9
1":
1:
b1111111111 \
b0010 "^
1"?
b0010 ?
#476
0a
0"d
0c
0i
0n
0p
0q
0"5
0t
0v
0"9
0":
0:
0"?
#481
1"d
b00000000000000000000000000001000 ")
1"l
b0011 M
b00000000000000000000000000001000 P
1"5
1"9
1":
1"?
1"A
1a
1c
1&
1f
b00000000000000000000000000110000 '
1i
1n
1p
b11111111111 "R
1q
b0010 s
1t
1v
1:
b0011 "^
b0011 ?
#486
0a
0"d
0c
0i
0n
0p
0q
0"5
0t
0v
0"9
0":
0:
0"?
#491
1a
1"d
1c
b00000000000000000000000000110001 '
b00000000000000000000000000001001 ")
1i
b0100 M
1n
b00000000000000000000000000001001 P
1p
1q
b0001 s
1"5
1t
1v
1"9
1":
1:
b0100 "^
1"?
b0100 ?
#496
0a
0"d
0c
0i
0n
0p
0q
0"5
0t
0v
0"9
0":
0:
0"?
